# Blender v2.78 (sub 0) OBJ File: ''
# www.blender.org
o Cube.005_Cube.009
v -5.250000 9.500000 5.250000
v -4.750000 10.500000 4.750000
v -5.250000 9.500000 -5.250000
v -4.750000 10.500000 -4.750000
v 5.250000 9.500000 5.250000
v 4.750000 10.500000 4.750000
v 5.250000 9.500000 -5.250000
v 4.750000 10.500000 -4.750000
v -5.250000 10.500000 5.250000
v -5.250000 10.500000 -5.250000
v 5.250000 10.500000 -5.250000
v 5.250000 10.500000 5.250000
v -4.750000 10.851600 4.750000
v -4.750000 10.851600 -4.750000
v 4.750000 10.851600 -4.750000
v 4.750000 10.851600 4.750000
vt 0.6750 0.9524
vt 0.7250 0.4524
vt 0.7250 0.9524
vt 0.5750 0.9524
vt 0.6250 0.4524
vt 0.6250 0.9524
vt 0.5250 0.9524
vt 0.5750 0.4524
vt 0.5750 0.9524
vt 0.6750 0.4524
vt 0.6250 0.9524
vt 0.6250 0.4524
vt 0.5250 0.5000
vt 0.0000 1.0000
vt 0.0000 0.5000
vt 0.7602 0.9048
vt 0.7426 0.4524
vt 0.7602 0.4524
vt 0.0250 0.4762
vt 0.0000 0.0000
vt 0.0250 0.0238
vt 0.5000 0.4762
vt 0.0000 0.5000
vt 0.5000 0.0238
vt 0.5250 0.5000
vt 0.5250 0.0000
vt 0.5250 0.4524
vt 1.0000 0.0000
vt 1.0000 0.4524
vt 0.7777 0.4524
vt 0.7953 0.9048
vt 0.7777 0.9048
vt 0.7777 0.9048
vt 0.7602 0.4524
vt 0.7777 0.4524
vt 0.7250 0.4524
vt 0.7426 0.9048
vt 0.7250 0.9048
vt 0.6750 0.4524
vt 0.5750 0.4524
vt 0.5250 0.4524
vt 0.5250 1.0000
vt 0.7426 0.9048
vt 0.5250 0.0000
vt 0.7953 0.4524
vt 0.7602 0.9048
vt 0.7426 0.4524
vn -1.0000 0.0000 0.0000
vn 0.0000 0.0000 -1.0000
vn 1.0000 0.0000 0.0000
vn 0.0000 0.0000 1.0000
vn 0.0000 -1.0000 0.0000
vn 0.0000 1.0000 0.0000
s off
f 9/1/1 3/2/1 1/3/1
f 10/4/2 7/5/2 3/6/2
f 11/7/3 5/8/3 7/9/3
f 12/10/4 1/11/4 5/12/4
f 7/13/5 1/14/5 3/15/5
f 4/16/2 15/17/2 8/18/2
f 4/19/6 9/20/6 2/21/6
f 8/22/6 10/23/6 4/19/6
f 6/24/6 11/25/6 8/22/6
f 2/21/6 12/26/6 6/24/6
f 14/27/6 16/28/6 15/29/6
f 8/30/3 16/31/3 6/32/3
f 2/33/1 14/34/1 4/35/1
f 6/36/4 13/37/4 2/38/4
f 9/1/1 10/39/1 3/2/1
f 10/4/2 11/40/2 7/5/2
f 11/7/3 12/41/3 5/8/3
f 12/10/4 9/1/4 1/11/4
f 7/13/5 5/42/5 1/14/5
f 4/16/2 14/43/2 15/17/2
f 4/19/6 10/23/6 9/20/6
f 8/22/6 11/25/6 10/23/6
f 6/24/6 12/26/6 11/25/6
f 2/21/6 9/20/6 12/26/6
f 14/27/6 13/44/6 16/28/6
f 8/30/3 15/45/3 16/31/3
f 2/33/1 13/46/1 14/34/1
f 6/36/4 16/47/4 13/37/4
o Cube.004_Cube.008
v -5.000000 5.000000 -5.000000
v -5.000000 10.000000 -5.000000
v 5.000000 5.000000 -5.000000
v 5.000000 10.000000 -5.000000
v -5.000000 5.000000 -4.166666
v -5.000000 10.000000 -4.166667
v 5.000000 5.000000 -4.166667
v 5.000000 10.000000 -4.166666
v 4.166666 5.000000 -5.000000
v -4.166667 5.000000 -5.000000
v -4.166666 10.000000 -5.000000
v 4.166667 10.000000 -5.000000
v 4.768540 10.000000 -4.166666
v 4.768540 5.000000 -4.166667
v -4.768540 10.000000 -4.166667
v -4.768540 5.000000 -4.166666
v 4.166666 5.000000 -4.768540
v -4.166667 5.000000 -4.768540
v -4.166666 10.000000 -4.768540
v 4.166667 10.000000 -4.768540
v -5.000000 8.757145 -5.000000
v 5.000000 8.757145 -5.000000
v 5.000000 8.757145 -4.166667
v -5.000000 8.757145 -4.166667
v -4.768540 8.757145 -4.166667
v 4.768540 8.757145 -4.166667
v 4.166667 8.757145 -4.768540
v -4.166667 8.757145 -4.768540
v -4.166667 8.757145 -5.000000
v -5.000000 6.393857 4.999997
v 4.166667 8.757145 -5.000000
v 5.000000 6.393857 4.999996
v -5.000000 6.393857 4.166663
v 5.000000 6.393857 4.166663
v 5.000000 6.393857 -5.000000
v -5.000000 6.393857 -5.000000
v 5.000000 6.393857 -4.166667
v -5.000000 6.393857 -4.166666
v -4.768540 6.393857 -4.166666
v 4.768540 6.393857 -4.166667
v 4.166666 6.393857 -4.768540
v -4.166667 6.393857 -4.768540
v -4.166667 6.393857 -5.000000
v 4.166666 6.393857 -5.000000
v 0.618978 8.757145 -4.612455
v -0.618976 8.757145 -4.612455
v 0.618976 6.393857 -4.612455
v -0.618978 6.393857 -4.612455
v -2.297752 10.000000 -4.768540
v -1.023465 10.000000 -4.768540
v -1.023469 5.000000 -4.768540
v -2.297756 5.000000 -4.768540
v -5.000000 8.757145 4.999997
v 5.000000 8.757145 4.999997
v -2.297754 8.757145 -4.768540
v -1.023467 8.757145 -4.768540
v -2.297756 6.393857 -4.768540
v -1.023469 6.393857 -4.768540
v -2.702247 5.000000 -4.768540
v -4.024978 5.000000 -4.768540
v -4.024975 10.000000 -4.768540
v -2.702243 10.000000 -4.768540
v 5.000000 8.757145 4.166663
v -5.000000 8.757145 4.166663
v -4.024976 8.757145 -4.768540
v -2.702245 8.757145 -4.768540
v -4.024978 6.393857 -4.768540
v -2.702246 6.393857 -4.768540
v -0.618975 10.000000 -4.768540
v 0.618979 10.000000 -4.768540
v 0.618976 5.000000 -4.768540
v -0.618978 5.000000 -4.768540
v 5.000000 10.000000 4.999997
v 5.000000 5.000000 4.999996
v -0.618976 8.757145 -4.768540
v 0.618978 8.757145 -4.768540
v -0.618978 6.393857 -4.768540
v 0.618976 6.393857 -4.768540
v 1.023470 10.000000 -4.768540
v 2.297757 10.000000 -4.768540
v 2.297753 5.000000 -4.768540
v 1.023466 5.000000 -4.768540
v -5.000000 10.000000 4.999996
v -5.000000 5.000000 4.999997
v 1.023468 8.757145 -4.768540
v 2.297755 8.757145 -4.768540
v 1.023467 6.393857 -4.768540
v 2.297753 6.393857 -4.768540
v 2.702248 10.000000 -4.768540
v 4.024979 10.000000 -4.768540
v 5.000000 10.000000 4.166663
v 5.000000 5.000000 4.166663
v 2.702246 8.757145 -4.768540
v 4.024977 8.757145 -4.768540
v 4.024976 5.000000 -4.768540
v 2.702244 5.000000 -4.768540
v 2.702244 6.393857 -4.768540
v 4.024976 6.393857 -4.768540
v -2.297754 8.757145 -4.612455
v -1.023467 8.757145 -4.612455
v -2.297756 6.393857 -4.612455
v -1.023469 6.393857 -4.612455
v -4.024976 8.757145 -4.612455
v -2.702245 8.757145 -4.612455
v -4.024978 6.393857 -4.612455
v -2.702246 6.393857 -4.612455
v 1.023468 8.757145 -4.612455
v 2.297755 8.757145 -4.612455
v 1.023467 6.393857 -4.612455
v 2.297753 6.393857 -4.612455
v 2.702246 8.757145 -4.612455
v 4.024977 8.757145 -4.612455
v 2.702244 6.393857 -4.612455
v 4.024976 6.393857 -4.612455
v 4.768540 10.000000 4.166670
v 4.768540 5.000000 4.166669
v -4.768540 10.000000 4.166669
v -4.768540 5.000000 4.166670
v -4.768540 8.757145 4.166670
v -5.000000 10.000000 4.166663
v 4.768540 8.757145 4.166670
v -5.000000 5.000000 4.166663
v -4.768540 6.393857 4.166670
v 4.768540 6.393857 4.166669
vt 0.1021 0.9000
vt 0.0511 0.8254
vt 0.1021 0.8254
vt 0.0000 0.6000
vt 0.0511 0.6746
vt 0.0000 0.6746
vt 0.6728 0.5000
vt 0.6870 0.5746
vt 0.6728 0.5746
vt 0.6728 0.7164
vt 0.6870 0.8000
vt 0.6728 0.8000
vt 0.2553 0.9000
vt 0.2042 0.8254
vt 0.2553 0.8254
vt 0.3063 0.5085
vt 0.3825 0.5000
vt 0.3825 0.5085
vt 0.5272 0.5000
vt 0.6126 0.5085
vt 0.5272 0.5085
vt 0.2694 0.9000
vt 0.2553 0.8254
vt 0.2694 0.8254
vt 0.1021 0.6746
vt 0.1532 0.8164
vt 0.1021 0.8164
vt 0.1021 0.6000
vt 0.1532 0.6746
vt 0.2694 0.6836
vt 0.2553 0.6000
vt 0.2694 0.6000
vt 0.6303 0.8000
vt 0.6161 0.7164
vt 0.6303 0.7164
vt 0.2553 0.6836
vt 0.6303 0.5746
vt 0.6161 0.5000
vt 0.6303 0.5000
vt 0.2553 0.6836
vt 0.2042 0.6000
vt 0.2553 0.6000
vt 0.6586 0.8000
vt 0.6444 0.7164
vt 0.6586 0.7164
vt 0.2042 0.6836
vt 0.6586 0.5746
vt 0.6444 0.5000
vt 0.6586 0.5000
vt 0.0000 0.8164
vt 0.0511 0.9000
vt 0.0000 0.9000
vt 0.6870 0.7164
vt 0.1021 0.6836
vt 0.0511 0.6000
vt 0.1021 0.6000
vt 0.0511 0.8164
vt 0.0511 0.6836
vt 0.3825 0.8114
vt 0.5272 0.7871
vt 0.5272 0.8114
vt 0.3825 0.7129
vt 0.5272 0.6886
vt 0.5272 0.7129
vt 0.3825 0.6121
vt 0.5272 0.5879
vt 0.5272 0.6121
vt 0.7635 0.7954
vt 0.7539 0.7212
vt 0.7635 0.7212
vt 0.6126 0.7129
vt 0.6126 0.6121
vt 0.6126 0.6886
vt 0.6126 0.5879
vt 0.3063 0.9121
vt 0.3825 0.8879
vt 0.3825 0.9121
vt 0.3063 0.8114
vt 0.3825 0.7871
vt 0.3063 0.7129
vt 0.3825 0.6886
vt 0.3063 0.6121
vt 0.3825 0.5879
vt 0.5272 0.9121
vt 0.5272 0.8879
vt 0.6126 0.8114
vt 0.6126 0.8879
vt 0.9700 0.0836
vt 0.9190 0.0000
vt 0.9700 0.0000
vt 0.6586 0.5000
vt 0.6728 0.5746
vt 0.6586 0.5746
vt 0.6728 0.7164
vt 0.6586 0.7164
vt 0.6444 0.5746
vt 0.6161 0.5746
vt 0.7628 0.6418
vt 0.6870 0.5000
vt 0.7628 0.5000
vt 0.3063 0.8879
vt 0.5272 1.0000
vt 0.6126 0.9915
vt 0.6126 1.0000
vt 0.7539 0.6418
vt 0.7635 0.7212
vt 0.7539 0.7212
vt 0.5272 0.9915
vt 0.6126 0.9121
vt 0.3063 1.0000
vt 0.3825 0.9915
vt 0.3825 1.0000
vt 0.3063 0.9915
vt 0.6303 0.5746
vt 0.6444 0.7164
vt 0.6303 0.7164
vt 0.6126 0.7871
vt 0.7444 0.6418
vt 0.7539 0.7836
vt 0.7444 0.7836
vt 0.7348 0.6418
vt 0.7444 0.7836
vt 0.7348 0.7836
vt 0.8336 0.0000
vt 0.6888 0.5000
vt 0.6888 0.0000
vt 0.7061 0.7836
vt 0.6965 0.6418
vt 0.7061 0.6418
vt 0.2209 0.6000
vt 0.0761 0.0000
vt 0.2209 0.0000
vt 0.3063 0.6886
vt 0.2981 0.7418
vt 0.2886 0.6000
vt 0.2981 0.6000
vt 0.7922 0.7183
vt 0.8017 0.7947
vt 0.7922 0.7947
vt 0.0761 0.6000
vt 0.0000 0.0000
vt 0.6965 0.7836
vt 0.6870 0.6418
vt 0.6965 0.6418
vt 0.5272 0.5000
vt 0.6126 0.0000
vt 0.6126 0.5000
vt 0.3063 0.6000
vt 0.3063 0.0000
vt 0.3063 0.5879
vt 0.8409 0.5000
vt 0.9190 0.6418
vt 0.8409 0.6418
vt 1.0000 0.5836
vt 0.9190 0.4418
vt 1.0000 0.4418
vt 0.7628 0.5000
vt 0.8409 0.6418
vt 0.7628 0.6418
vt 0.9190 0.3000
vt 1.0000 0.4418
vt 0.9190 0.4418
vt 0.2790 0.7418
vt 0.2694 0.6000
vt 0.2790 0.6000
vt 0.7826 0.7212
vt 0.7730 0.6418
vt 0.7826 0.6418
vt 0.8017 0.7183
vt 0.7922 0.6418
vt 0.8017 0.6418
vt 0.3063 0.7871
vt 0.7252 0.6418
vt 0.7348 0.7836
vt 0.7252 0.7836
vt 0.6444 0.8000
vt 0.6303 0.8000
vt 0.8017 0.6418
vt 0.8113 0.7183
vt 0.8017 0.7183
vt 0.8113 0.7947
vt 0.8017 0.7183
vt 0.8113 0.7183
vt 0.2886 0.7418
vt 0.2790 0.6000
vt 0.2886 0.6000
vt 0.7157 0.6418
vt 0.7252 0.7836
vt 0.7157 0.7836
vt 0.7730 0.7212
vt 0.7635 0.6418
vt 0.7730 0.6418
vt 0.7826 0.6418
vt 0.7922 0.7212
vt 0.7826 0.7212
vt 0.7061 0.6418
vt 0.7157 0.7836
vt 0.7061 0.7836
vt 0.9700 0.2254
vt 0.9190 0.0836
vt 0.7635 0.7212
vt 0.7730 0.7954
vt 0.7635 0.7954
vt 0.6728 0.8000
vt 0.6586 0.8000
vt 0.2042 0.8254
vt 0.1532 0.6836
vt 0.2042 0.6836
vt 0.6303 0.5000
vt 0.6444 0.5746
vt 0.9190 0.0000
vt 0.8336 0.5000
vt 0.3063 0.5000
vt 0.3825 0.0000
vt 0.3825 0.5000
vt 0.6126 0.5000
vt 0.6126 0.0000
vt 0.5272 0.0000
vt 0.9700 0.3000
vt 0.9190 0.2254
vt 0.1532 0.6000
vt 0.2042 0.6000
vt 0.2042 0.9000
vt 0.1532 0.8254
vt 0.1532 0.9000
vt 0.1021 0.9000
vt 0.0511 0.9000
vt 0.0511 0.6000
vt 0.6870 0.5000
vt 0.2042 0.9000
vt 0.3063 0.5000
vt 0.6126 0.5000
vt 0.2553 0.9000
vt 0.1532 0.6000
vt 0.6161 0.8000
vt 0.6444 0.8000
vt 0.7539 0.7954
vt 0.6728 0.5000
vt 0.6870 0.6418
vt 0.7635 0.6418
vt 0.7539 0.6418
vt 0.7444 0.6418
vt 0.6965 0.7836
vt 0.2886 0.7418
vt 0.8017 0.7183
vt 0.0000 0.6000
vt 0.6870 0.7836
vt 0.9190 0.5000
vt 0.9190 0.5836
vt 0.8409 0.5000
vt 1.0000 0.3000
vt 0.2694 0.7418
vt 0.7730 0.7212
vt 0.7922 0.7183
vt 0.7348 0.6418
vt 0.8113 0.6418
vt 0.8017 0.7947
vt 0.2790 0.7418
vt 0.7252 0.6418
vt 0.7635 0.7212
vt 0.7922 0.6418
vt 0.7157 0.6418
vt 0.7730 0.7212
vt 0.6444 0.5000
vt 0.9190 0.5000
vt 0.3063 0.0000
vt 0.9190 0.3000
vt 0.1532 0.9000
vn -1.0000 0.0000 0.0000
vn 0.0000 0.0000 -1.0000
vn 0.0000 -0.0000 1.0000
vn 1.0000 0.0000 0.0000
vn 0.0000 -1.0000 0.0000
vn 0.0000 1.0000 0.0000
s off
f 22/48/7 37/49/7 40/50/7
f 28/51/8 38/52/8 47/53/8
f 24/54/9 42/55/9 39/56/9
f 53/57/9 30/58/9 23/59/9
f 20/60/10 39/61/10 38/62/10
f 106/63/8 43/64/8 110/65/8
f 57/66/8 111/67/8 114/68/8
f 27/69/10 44/70/10 45/71/10
f 37/72/8 59/73/8 52/74/8
f 18/75/8 45/76/8 37/72/8
f 59/77/10 34/78/10 26/79/10
f 25/80/7 57/81/7 60/82/7
f 45/71/10 58/83/10 59/77/10
f 47/84/7 36/85/7 28/86/7
f 51/87/10 23/88/10 19/89/10
f 110/65/8 57/66/8 114/68/8
f 21/90/9 55/91/9 54/92/9
f 38/62/10 53/93/10 51/87/10
f 40/94/9 31/95/9 22/96/9
f 60/97/8 19/98/8 25/99/8
f 39/56/9 56/100/9 53/57/9
f 54/101/7 17/102/7 21/103/7
f 47/53/8 51/104/8 60/97/8
f 40/50/7 52/105/7 54/101/7
f 72/106/8 93/107/8 74/108/8
f 92/109/8 103/110/8 94/111/8
f 102/112/8 113/113/8 104/114/8
f 92/115/11 62/116/11 91/117/11
f 103/110/8 87/118/8 94/111/8
f 103/110/8 97/119/8 98/120/8
f 113/113/8 111/67/8 112/121/8
f 78/122/8 71/123/8 82/124/8
f 66/125/8 91/126/8 72/106/8
f 86/127/8 101/128/8 92/109/8
f 96/129/8 109/130/8 102/112/8
f 71/123/8 84/131/8 82/124/8
f 73/132/8 67/133/8 68/134/8
f 46/135/7 138/136/7 100/137/7
f 131/138/8 79/139/8 137/140/8
f 137/140/8 50/141/8 140/142/8
f 54/92/9 41/143/9 40/94/9
f 60/82/7 43/144/7 47/84/7
f 63/145/8 62/146/8 61/147/8
f 65/148/8 72/106/8 71/123/8
f 58/149/8 76/150/8 34/151/8
f 83/152/12 122/153/12 84/154/12
f 83/155/8 75/156/8 76/150/8
f 35/157/8 81/158/8 44/159/8
f 77/160/8 82/124/8 81/158/8
f 80/161/8 139/162/8 49/163/8
f 74/108/8 88/164/8 67/133/8
f 44/159/8 83/155/8 58/149/8
f 81/165/10 121/166/10 83/167/10
f 91/168/10 64/169/10 93/170/10
f 55/171/7 135/172/7 41/173/7
f 84/131/8 68/134/8 75/156/8
f 104/174/7 124/175/7 102/176/7
f 48/177/9 69/178/9 46/179/9
f 95/180/8 102/112/8 101/128/8
f 104/114/8 112/121/8 97/119/8
f 94/181/7 61/182/7 92/183/7
f 103/184/12 126/185/12 104/186/12
f 70/187/9 99/188/9 69/178/9
f 114/189/7 128/190/7 110/191/7
f 87/118/8 93/107/8 94/111/8
f 56/192/10 132/193/10 30/194/10
f 90/195/9 46/179/9 100/196/9
f 105/197/8 110/65/8 109/130/8
f 115/198/8 118/199/8 117/200/8
f 119/201/8 122/202/8 121/203/8
f 123/204/8 126/205/8 125/206/8
f 127/207/8 130/208/8 129/209/8
f 84/210/7 120/211/7 82/212/7
f 113/213/12 130/214/12 114/215/12
f 72/216/11 115/217/11 71/218/11
f 92/109/8 85/219/8 86/127/8
f 71/220/10 117/221/10 73/222/10
f 49/163/8 134/223/8 138/224/8
f 73/225/12 118/226/12 74/227/12
f 102/228/11 123/229/11 101/230/11
f 74/231/7 116/232/7 72/233/7
f 109/234/10 129/235/10 113/236/10
f 82/237/11 119/238/11 81/239/11
f 110/240/11 127/241/11 109/242/11
f 101/243/10 125/244/10 103/245/10
f 69/246/7 49/247/7 46/135/7
f 93/248/12 63/249/12 94/250/12
f 140/142/8 108/251/8 132/252/8
f 79/253/10 48/254/10 50/255/10
f 136/256/8 135/257/8 80/161/8
f 32/258/7 139/259/7 55/171/7
f 29/260/10 137/261/10 42/262/10
f 41/173/7 133/263/7 31/264/7
f 42/262/10 140/265/10 56/192/10
f 99/266/7 80/267/7 69/246/7
f 50/255/10 90/268/10 108/269/10
f 107/270/10 70/271/10 79/253/10
f 52/74/8 26/272/8 17/273/8
f 22/48/7 18/274/7 37/49/7
f 28/51/8 20/275/8 38/52/8
f 24/54/9 29/276/9 42/55/9
f 53/57/9 56/100/9 30/58/9
f 20/60/10 24/277/10 39/61/10
f 106/63/8 36/278/8 43/64/8
f 57/66/8 33/279/8 111/67/8
f 27/69/10 35/280/10 44/70/10
f 37/72/8 45/76/8 59/73/8
f 18/75/8 27/281/8 45/76/8
f 59/77/10 58/83/10 34/78/10
f 25/80/7 33/282/7 57/81/7
f 45/71/10 44/70/10 58/83/10
f 47/84/7 43/144/7 36/85/7
f 51/87/10 53/93/10 23/88/10
f 110/65/8 43/64/8 57/66/8
f 21/90/9 32/283/9 55/91/9
f 38/62/10 39/61/10 53/93/10
f 40/94/9 41/143/9 31/95/9
f 60/97/8 51/104/8 19/98/8
f 39/56/9 42/55/9 56/100/9
f 54/101/7 52/105/7 17/102/7
f 47/53/8 38/52/8 51/104/8
f 40/50/7 37/49/7 52/105/7
f 72/106/8 91/126/8 93/107/8
f 92/109/8 101/128/8 103/110/8
f 102/112/8 109/130/8 113/113/8
f 92/115/11 61/284/11 62/116/11
f 103/110/8 98/120/8 87/118/8
f 103/110/8 104/114/8 97/119/8
f 113/113/8 114/68/8 111/67/8
f 78/122/8 65/148/8 71/123/8
f 66/125/8 85/219/8 91/126/8
f 86/127/8 95/180/8 101/128/8
f 96/129/8 105/197/8 109/130/8
f 71/123/8 73/132/8 84/131/8
f 73/132/8 74/108/8 67/133/8
f 46/135/7 49/247/7 138/136/7
f 131/138/8 107/285/8 79/139/8
f 137/140/8 79/139/8 50/141/8
f 54/92/9 55/91/9 41/143/9
f 60/82/7 57/81/7 43/144/7
f 63/145/8 64/286/8 62/146/8
f 65/148/8 66/125/8 72/106/8
f 58/149/8 83/155/8 76/150/8
f 83/152/12 121/287/12 122/153/12
f 83/155/8 84/131/8 75/156/8
f 35/157/8 77/160/8 81/158/8
f 77/160/8 78/122/8 82/124/8
f 80/161/8 135/257/8 139/162/8
f 74/108/8 93/107/8 88/164/8
f 44/159/8 81/158/8 83/155/8
f 81/165/10 119/288/10 121/166/10
f 91/168/10 62/289/10 64/169/10
f 55/171/7 139/259/7 135/172/7
f 84/131/8 73/132/8 68/134/8
f 104/174/7 126/290/7 124/175/7
f 48/177/9 70/187/9 69/178/9
f 95/180/8 96/129/8 102/112/8
f 104/114/8 113/113/8 112/121/8
f 94/181/7 63/291/7 61/182/7
f 103/184/12 125/292/12 126/185/12
f 70/187/9 89/293/9 99/188/9
f 114/189/7 130/294/7 128/190/7
f 87/118/8 88/164/8 93/107/8
f 56/192/10 140/265/10 132/193/10
f 90/195/9 48/177/9 46/179/9
f 105/197/8 106/63/8 110/65/8
f 115/198/8 116/295/8 118/199/8
f 119/201/8 120/296/8 122/202/8
f 123/204/8 124/297/8 126/205/8
f 127/207/8 128/298/8 130/208/8
f 84/210/7 122/299/7 120/211/7
f 113/213/12 129/300/12 130/214/12
f 72/216/11 116/301/11 115/217/11
f 92/109/8 91/126/8 85/219/8
f 71/220/10 115/302/10 117/221/10
f 49/163/8 139/162/8 134/223/8
f 73/225/12 117/303/12 118/226/12
f 102/228/11 124/304/11 123/229/11
f 74/231/7 118/305/7 116/232/7
f 109/234/10 127/306/10 129/235/10
f 82/237/11 120/307/11 119/238/11
f 110/240/11 128/308/11 127/241/11
f 101/243/10 123/309/10 125/244/10
f 69/246/7 80/267/7 49/247/7
f 93/248/12 64/310/12 63/249/12
f 140/142/8 50/141/8 108/251/8
f 79/253/10 70/271/10 48/254/10
f 136/256/8 133/311/8 135/257/8
f 32/258/7 134/312/7 139/259/7
f 29/260/10 131/313/10 137/261/10
f 41/173/7 135/172/7 133/263/7
f 42/262/10 137/261/10 140/265/10
f 99/266/7 136/314/7 80/267/7
f 50/255/10 48/254/10 90/268/10
f 107/270/10 89/315/10 70/271/10
f 52/74/8 59/73/8 26/272/8
o Cube.001_Cube.003
v -5.250000 4.500000 5.250000
v -5.250000 5.500000 5.250000
v -5.250000 4.500000 -5.250000
v -5.250000 5.500000 -5.250000
v 5.250000 4.500000 5.250000
v 5.250000 5.500000 5.250000
v 5.250000 4.500000 -5.250000
v 5.250000 5.500000 -5.250000
vt 0.9310 0.5000
vt 1.0000 0.0000
vt 1.0000 0.5000
vt 0.7931 0.5000
vt 0.8621 0.0000
vt 0.8621 0.5000
vt 0.7241 0.5000
vt 0.7931 0.0000
vt 0.7931 0.5000
vt 0.9310 0.0000
vt 0.8621 0.5000
vt 0.8621 0.0000
vt 0.7241 0.5000
vt 0.0000 1.0000
vt 0.0000 0.5000
vt 0.0000 0.5000
vt 0.7241 0.0000
vt 0.9310 0.0000
vt 0.7931 0.0000
vt 0.7241 1.0000
vt 0.0000 0.0000
vn -1.0000 0.0000 0.0000
vn 0.0000 0.0000 -1.0000
vn 1.0000 0.0000 0.0000
vn 0.0000 0.0000 1.0000
vn 0.0000 -1.0000 0.0000
vn 0.0000 1.0000 0.0000
s off
f 142/316/13 143/317/13 141/318/13
f 144/319/14 147/320/14 143/321/14
f 148/322/15 145/323/15 147/324/15
f 146/325/16 141/326/16 145/327/16
f 147/328/17 141/329/17 143/330/17
f 144/331/18 146/332/18 148/322/18
f 142/316/13 144/333/13 143/317/13
f 144/319/14 148/334/14 147/320/14
f 148/322/15 146/332/15 145/323/15
f 146/325/16 142/316/16 141/326/16
f 147/328/17 145/335/17 141/329/17
f 144/331/18 142/336/18 146/332/18
o Cube_Cube.002
v -5.000000 0.000000 -5.000000
v -5.000000 5.000000 -5.000000
v 5.000000 0.000000 -5.000000
v 5.000000 5.000000 -5.000000
v -5.000000 0.000000 -4.166666
v -5.000000 5.000000 -4.166667
v 5.000000 0.000000 -4.166667
v 5.000000 5.000000 -4.166666
v 4.166666 0.000000 -5.000000
v -4.166667 0.000000 -5.000000
v -4.166666 5.000000 -5.000000
v 4.166667 5.000000 -5.000000
v 4.768540 5.000000 -4.166666
v 4.768540 0.000000 -4.166667
v -4.768540 5.000000 -4.166667
v -4.768540 0.000000 -4.166666
v 4.166666 0.000000 -4.768540
v -4.166667 0.000000 -4.768540
v -4.166666 5.000000 -4.768540
v 4.166667 5.000000 -4.768540
v -5.000000 3.757144 -5.000000
v 5.000000 3.757144 -5.000000
v 5.000000 3.757144 -4.166667
v -5.000000 3.757144 -4.166667
v -4.768540 3.757144 -4.166667
v 4.768540 3.757144 -4.166667
v 4.166667 3.757144 -4.768540
v -4.166667 3.757144 -4.768540
v -4.166667 3.757144 -5.000000
v -5.000000 1.915245 4.999997
v 4.166667 3.757144 -5.000000
v 5.000000 1.915245 4.999996
v -5.000000 1.915245 4.166663
v 5.000000 1.915245 4.166663
v 5.000000 1.915245 -5.000000
v -5.000000 1.915245 -5.000000
v 5.000000 1.915245 -4.166667
v -5.000000 1.915245 -4.166666
v -4.768540 1.915245 -4.166666
v 4.768540 1.915245 -4.166667
v 4.166666 1.915245 -4.768540
v -4.166667 1.915245 -4.768540
v -4.166667 1.915245 -5.000000
v 4.166666 1.915245 -5.000000
v -1.016184 5.000000 -4.768540
v -0.452629 5.000000 -4.768540
v -1.016187 0.000000 -4.768540
v -5.000000 3.757144 4.999997
v 5.000000 3.757144 4.999997
v -1.016185 3.757144 -4.768540
v -0.452629 3.757144 -4.768540
v -1.016187 1.915245 -4.768540
v -2.702247 0.000000 -4.768540
v -4.024978 0.000000 -4.768540
v -4.024975 5.000000 -4.768540
v -2.702243 5.000000 -4.768540
v 5.000000 3.757144 4.166663
v -5.000000 3.757144 4.166663
v -4.024976 3.757144 -4.768540
v -2.702245 3.757144 -4.768540
v -4.024978 1.915245 -4.768540
v -2.702246 1.915245 -4.768540
v -1.016187 0.000000 -4.350882
v -1.016186 3.757144 -4.350882
v -0.452631 0.000000 -4.350882
v 0.452630 3.757144 -4.350882
v 5.000000 5.000000 4.999997
v 5.000000 0.000000 4.999996
v 0.452630 1.915245 -4.350882
v -0.452630 3.757144 -4.350882
v -0.452631 1.915245 -4.350882
v -1.016187 1.915245 -4.350882
v 0.452632 5.000000 -4.768540
v 1.016188 5.000000 -4.768540
v 1.016185 0.000000 -4.768540
v -5.000000 5.000000 4.999996
v -5.000000 0.000000 4.999997
v 0.452631 3.757144 -4.768540
v 1.016187 3.757144 -4.768540
v 1.016185 1.915245 -4.768540
v 2.702248 5.000000 -4.768540
v 4.024979 5.000000 -4.768540
v 5.000000 5.000000 4.166663
v 5.000000 0.000000 4.166663
v 2.702246 3.757144 -4.768540
v 4.024977 3.757144 -4.768540
v 4.024976 0.000000 -4.768540
v 2.702244 0.000000 -4.768540
v 2.702244 1.915245 -4.768540
v 4.024976 1.915245 -4.768540
v 4.768540 5.000000 4.166670
v 4.768540 0.000000 4.166669
v -4.768540 5.000000 4.166669
v -4.768540 0.000000 4.166670
v -4.768540 3.757144 4.166670
v -5.000000 5.000000 4.166663
v 4.768540 3.757144 4.166670
v -5.000000 0.000000 4.166663
v -4.768540 1.915245 4.166670
v 4.768540 1.915245 4.166669
v 1.016185 0.000000 -4.350882
v 0.452629 0.000000 -4.350882
v 1.016186 3.757144 -4.350882
v 1.016185 1.915245 -4.350882
vt 0.9133 0.5000
vt 0.9688 0.5746
vt 0.9133 0.5746
vt 0.8022 0.5000
vt 0.8577 0.5746
vt 0.8022 0.5746
vt 0.9843 0.5000
vt 0.9997 0.5746
vt 0.9843 0.5746
vt 0.9843 0.6851
vt 0.9997 0.8000
vt 0.9843 0.8000
vt 0.1111 0.6000
vt 0.1667 0.6746
vt 0.1111 0.6746
vt 0.3333 0.5085
vt 0.4162 0.5000
vt 0.4162 0.5085
vt 0.5390 0.5000
vt 0.6667 0.5085
vt 0.5390 0.5085
vt 0.2686 0.6000
vt 0.2841 0.6746
vt 0.2686 0.6746
vt 0.0556 0.6746
vt 0.1111 0.7851
vt 0.0556 0.7851
vt 0.0556 0.6000
vt 0.1111 0.6746
vt 0.2686 0.7851
vt 0.2841 0.9000
vt 0.2686 0.9000
vt 0.2224 0.6000
vt 0.2378 0.7149
vt 0.2224 0.7149
vt 0.2841 0.7851
vt 0.2224 0.8254
vt 0.2378 0.9000
vt 0.2224 0.9000
vt 0.1111 0.7851
vt 0.1667 0.9000
vt 0.1111 0.9000
vt 0.2532 0.9000
vt 0.2378 0.7851
vt 0.2532 0.7851
vt 0.1667 0.7851
vt 0.2532 0.6746
vt 0.2378 0.6000
vt 0.2532 0.6000
vt 0.8022 0.6851
vt 0.8577 0.8000
vt 0.8022 0.8000
vt 0.9997 0.6851
vt 0.9133 0.6851
vt 0.9688 0.8000
vt 0.9133 0.8000
vt 0.8577 0.6851
vt 0.9688 0.6851
vt 0.2841 0.6338
vt 0.3119 0.6000
vt 0.3119 0.6338
vt 0.7042 0.5000
vt 0.7646 0.6105
vt 0.7042 0.6105
vt 0.4162 0.6890
vt 0.5390 0.5879
vt 0.5390 0.6890
vt 0.6667 0.5000
vt 0.8022 0.6105
vt 0.7646 0.7254
vt 0.2224 0.7105
vt 0.1945 0.6000
vt 0.2224 0.6000
vt 0.6667 0.5879
vt 0.3333 0.9121
vt 0.4162 0.8110
vt 0.4162 0.9121
vt 0.6667 0.7254
vt 0.6667 0.6105
vt 0.3333 0.6890
vt 0.4162 0.5879
vt 0.5390 0.8110
vt 0.5390 0.9121
vt 0.2841 0.6881
vt 0.3119 0.6881
vt 0.0556 0.7149
vt 0.0000 0.6000
vt 0.0556 0.6000
vt 0.9688 0.5000
vt 0.9843 0.5746
vt 0.9688 0.5746
vt 0.9843 0.6851
vt 0.9688 0.6851
vt 0.2378 0.6746
vt 0.2378 0.8254
vt 0.3333 0.8110
vt 0.4162 0.7772
vt 0.5390 1.0000
vt 0.6667 0.9915
vt 0.6667 1.0000
vt 0.5390 0.9915
vt 0.6667 0.9121
vt 0.3333 1.0000
vt 0.4162 0.9915
vt 0.4162 1.0000
vt 0.3333 0.9915
vt 0.2532 0.6746
vt 0.2686 0.7851
vt 0.2532 0.7851
vt 0.7042 0.7254
vt 0.4610 0.5000
vt 0.5838 0.0000
vt 0.5838 0.5000
vt 0.6667 0.8110
vt 0.1667 0.7105
vt 0.1945 0.8254
vt 0.1667 0.8254
vt 0.2057 0.6000
vt 0.0829 0.0000
vt 0.2057 0.0000
vt 0.3333 0.7228
vt 0.4162 0.7228
vt 0.6667 0.6890
vt 0.2841 0.7219
vt 0.3119 0.7219
vt 0.0829 0.6000
vt 0.0000 0.0000
vt 0.3333 0.7772
vt 0.8723 0.5000
vt 1.0000 0.0000
vt 1.0000 0.5000
vt 0.3333 0.6000
vt 0.3333 0.0000
vt 0.3333 0.5879
vt 0.7646 0.5000
vt 0.8022 0.5000
vt 0.2686 0.9000
vt 0.2532 0.9000
vt 0.0556 0.8254
vt 0.0000 0.7149
vt 0.9843 0.8000
vt 0.9688 0.8000
vt 0.9133 0.7254
vt 0.8577 0.6149
vt 0.9133 0.6149
vt 0.2532 0.6000
vt 0.2686 0.6746
vt 0.3333 0.5000
vt 0.4610 0.0000
vt 0.6667 0.5000
vt 0.7495 0.0000
vt 0.7495 0.5000
vt 0.6667 0.0000
vt 0.6667 0.5000
vt 0.8723 0.0000
vt 0.0556 0.9000
vt 0.0000 0.8254
vt 0.8577 0.5000
vt 0.9133 0.5000
vt 0.9133 0.8000
vt 0.8577 0.7254
vt 0.1111 0.9000
vt 0.0556 0.9000
vt 0.1667 0.6000
vt 0.1945 0.7105
vt 0.2224 0.8254
vt 0.1945 0.7105
vt 0.9688 0.5000
vt 0.8577 0.5000
vt 0.9997 0.5000
vt 0.1667 0.6000
vt 0.3333 0.5000
vt 0.6667 0.5000
vt 0.2841 0.6000
vt 0.1111 0.6000
vt 0.2378 0.6000
vt 0.2378 0.9000
vt 0.2841 0.6000
vt 0.8022 0.7254
vt 0.9843 0.5000
vt 0.0000 0.6000
vt 0.2686 0.6000
vt 0.3333 0.0000
vt 0.6667 0.0000
vt 0.0000 0.9000
vt 0.8577 0.8000
vt 0.1945 0.6000
vt 0.1945 0.8254
vn -1.0000 0.0000 0.0000
vn 0.0000 0.0000 -1.0000
vn 0.0000 -0.0000 1.0000
vn 1.0000 0.0000 0.0000
vn 0.0000 -1.0000 0.0000
s off
f 154/337/19 169/338/19 172/339/19
f 160/340/20 170/341/20 179/342/20
f 156/343/21 174/344/21 171/345/21
f 185/346/21 162/347/21 155/348/21
f 152/349/22 171/350/22 170/351/22
f 230/352/20 175/353/20 234/354/20
f 189/355/20 235/356/20 238/357/20
f 159/358/22 176/359/22 177/360/22
f 169/361/20 191/362/20 184/363/20
f 150/364/20 177/365/20 169/361/20
f 191/366/22 166/367/22 158/368/22
f 157/369/19 189/370/19 192/371/19
f 177/360/22 190/372/22 191/366/22
f 179/373/19 168/374/19 160/375/19
f 183/376/22 155/377/22 151/378/22
f 234/354/20 189/355/20 238/357/20
f 153/379/21 187/380/21 186/381/21
f 170/351/22 185/382/22 183/376/22
f 172/383/21 163/384/21 154/385/21
f 192/386/20 151/387/20 157/388/20
f 171/345/21 188/389/21 185/346/21
f 186/390/19 149/391/19 153/392/19
f 179/342/20 183/393/20 192/386/20
f 172/339/19 184/394/19 186/390/19
f 226/395/23 251/396/23 214/397/23
f 218/398/20 217/399/20 219/400/20
f 227/401/20 237/402/20 228/403/20
f 219/400/20 212/404/20 218/398/20
f 252/405/20 250/406/20 217/399/20
f 228/407/19 251/408/19 227/409/19
f 237/402/20 235/356/20 236/410/20
f 204/411/20 198/412/20 208/413/20
f 219/400/20 211/414/20 220/415/20
f 222/416/20 233/417/20 227/401/20
f 208/413/20 200/418/20 210/419/20
f 199/420/23 214/397/23 218/421/23
f 178/422/19 246/423/19 225/424/19
f 239/425/20 205/426/20 245/427/20
f 245/427/20 182/428/20 248/429/20
f 186/381/21 173/430/21 172/383/21
f 192/371/19 175/431/19 179/373/19
f 193/432/20 199/433/20 198/412/20
f 190/434/20 202/435/20 166/436/20
f 209/437/20 201/438/20 202/435/20
f 167/439/20 207/440/20 176/441/20
f 203/442/20 208/413/20 207/440/20
f 206/443/20 247/444/20 181/445/20
f 217/399/20 213/446/20 219/400/20
f 190/434/20 207/440/20 209/437/20
f 187/447/19 243/448/19 173/449/19
f 210/419/20 195/450/20 201/438/20
f 200/451/22 211/452/22 195/453/22
f 180/454/21 196/455/21 178/456/21
f 221/457/20 227/401/20 226/458/20
f 228/403/20 236/410/20 223/459/20
f 198/460/23 218/421/23 212/461/23
f 197/462/21 224/463/21 196/455/21
f 210/419/20 207/440/20 208/413/20
f 194/464/20 226/458/20 199/433/20
f 188/465/22 240/466/22 162/467/22
f 216/468/21 178/456/21 225/469/21
f 229/470/20 234/354/20 233/417/20
f 238/357/20 233/417/20 234/354/20
f 252/405/20 214/471/20 251/472/20
f 181/445/20 242/473/20 246/474/20
f 196/475/19 181/476/19 178/422/19
f 248/429/20 232/477/20 240/478/20
f 205/479/22 180/480/22 182/481/22
f 244/482/20 243/483/20 206/443/20
f 164/484/19 247/485/19 187/447/19
f 161/486/22 245/487/22 174/488/22
f 173/449/19 241/489/19 163/490/19
f 174/488/22 248/491/22 188/465/22
f 224/492/19 206/493/19 196/475/19
f 182/481/22 216/494/22 232/495/22
f 231/496/22 197/497/22 205/479/22
f 184/363/20 158/498/20 149/499/20
f 198/500/22 220/501/22 200/451/22
f 223/502/19 252/503/19 228/407/19
f 154/337/19 150/504/19 169/338/19
f 160/340/20 152/505/20 170/341/20
f 156/343/21 161/506/21 174/344/21
f 185/346/21 188/389/21 162/347/21
f 152/349/22 156/507/22 171/350/22
f 230/352/20 168/508/20 175/353/20
f 189/355/20 165/509/20 235/356/20
f 159/358/22 167/510/22 176/359/22
f 169/361/20 177/365/20 191/362/20
f 150/364/20 159/511/20 177/365/20
f 191/366/22 190/372/22 166/367/22
f 157/369/19 165/512/19 189/370/19
f 177/360/22 176/359/22 190/372/22
f 179/373/19 175/431/19 168/374/19
f 183/376/22 185/382/22 155/377/22
f 234/354/20 175/353/20 189/355/20
f 153/379/21 164/513/21 187/380/21
f 170/351/22 171/350/22 185/382/22
f 172/383/21 173/430/21 163/384/21
f 192/386/20 183/393/20 151/387/20
f 171/345/21 174/344/21 188/389/21
f 186/390/19 184/394/19 149/391/19
f 179/342/20 170/341/20 183/393/20
f 172/339/19 169/338/19 184/394/19
f 226/395/23 227/514/23 251/396/23
f 218/398/20 214/471/20 217/399/20
f 227/401/20 233/417/20 237/402/20
f 219/400/20 220/415/20 212/404/20
f 252/405/20 249/515/20 250/406/20
f 228/407/19 252/503/19 251/408/19
f 237/402/20 238/357/20 235/356/20
f 204/411/20 193/432/20 198/412/20
f 219/400/20 213/446/20 211/414/20
f 222/416/20 229/470/20 233/417/20
f 208/413/20 198/412/20 200/418/20
f 199/420/23 226/395/23 214/397/23
f 178/422/19 181/476/19 246/423/19
f 239/425/20 231/516/20 205/426/20
f 245/427/20 205/426/20 182/428/20
f 186/381/21 187/380/21 173/430/21
f 192/371/19 189/370/19 175/431/19
f 193/432/20 194/464/20 199/433/20
f 190/434/20 209/437/20 202/435/20
f 209/437/20 210/419/20 201/438/20
f 167/439/20 203/442/20 207/440/20
f 203/442/20 204/411/20 208/413/20
f 206/443/20 243/483/20 247/444/20
f 217/399/20 250/406/20 213/446/20
f 190/434/20 176/441/20 207/440/20
f 187/447/19 247/485/19 243/448/19
f 210/419/20 200/418/20 195/450/20
f 200/451/22 220/501/22 211/452/22
f 180/454/21 197/462/21 196/455/21
f 221/457/20 222/416/20 227/401/20
f 228/403/20 237/402/20 236/410/20
f 198/460/23 199/420/23 218/421/23
f 197/462/21 215/517/21 224/463/21
f 210/419/20 209/437/20 207/440/20
f 194/464/20 221/457/20 226/458/20
f 188/465/22 248/491/22 240/466/22
f 216/468/21 180/454/21 178/456/21
f 229/470/20 230/352/20 234/354/20
f 238/357/20 237/402/20 233/417/20
f 252/405/20 217/399/20 214/471/20
f 181/445/20 247/444/20 242/473/20
f 196/475/19 206/493/19 181/476/19
f 248/429/20 182/428/20 232/477/20
f 205/479/22 197/497/22 180/480/22
f 244/482/20 241/518/20 243/483/20
f 164/484/19 242/519/19 247/485/19
f 161/486/22 239/520/22 245/487/22
f 173/449/19 243/448/19 241/489/19
f 174/488/22 245/487/22 248/491/22
f 224/492/19 244/521/19 206/493/19
f 182/481/22 180/480/22 216/494/22
f 231/496/22 215/522/22 197/497/22
f 184/363/20 191/362/20 158/498/20
f 198/500/22 212/523/22 220/501/22
f 223/502/19 249/524/19 252/503/19
