# Blender v2.78 (sub 0) OBJ File: ''
# www.blender.org
o Cube.011_Cube.015
v -5.000000 0.000000 -5.000000
v -5.000000 5.000000 -5.000000
v 5.000000 0.000000 -5.000000
v 5.000000 5.000000 -5.000000
v -5.000000 0.000000 -4.166666
v -5.000000 5.000000 -4.166667
v 5.000000 0.000000 -4.166667
v 5.000000 5.000000 -4.166666
v 4.166666 0.000000 -5.000000
v -4.166667 0.000000 -5.000000
v -4.166666 5.000000 -5.000000
v 4.166667 5.000000 -5.000000
v 4.768540 5.000000 -4.166666
v 4.768540 0.000000 -4.166667
v -4.768540 5.000000 -4.166667
v -4.768540 0.000000 -4.166666
v 4.166666 0.000000 -4.768540
v -4.166667 0.000000 -4.768540
v -4.166666 5.000000 -4.768540
v 4.166667 5.000000 -4.768540
v -5.000000 3.757144 -5.000000
v 5.000000 3.757144 -5.000000
v 5.000000 3.757144 -4.166667
v -5.000000 3.757144 -4.166667
v -4.768540 3.757144 -4.166667
v 4.768540 3.757144 -4.166667
v 4.166667 3.757144 -4.768540
v -4.166667 3.757144 -4.768540
v -4.166667 3.757144 -5.000000
v -5.000000 1.915245 4.999997
v 4.166667 3.757144 -5.000000
v 5.000000 1.915245 4.999996
v -5.000000 1.915245 4.166663
v 5.000000 1.915245 4.166663
v 5.000000 1.915245 -5.000000
v -5.000000 1.915245 -5.000000
v 5.000000 1.915245 -4.166667
v -5.000000 1.915245 -4.166666
v -4.768540 1.915245 -4.166666
v 4.768540 1.915245 -4.166667
v 4.166666 1.915245 -4.768540
v -4.166667 1.915245 -4.768540
v -4.166667 1.915245 -5.000000
v 4.166666 1.915245 -5.000000
v -2.113633 5.000000 -4.768540
v -0.941455 5.000000 -4.768540
v -2.113636 0.000000 -4.768540
v -5.000000 3.757144 4.999997
v 5.000000 3.757144 4.999997
v -2.113635 3.757144 -4.768540
v -0.941456 3.757144 -4.768540
v -2.113636 1.915245 -4.768540
v -2.702247 0.000000 -4.768540
v -4.024978 0.000000 -4.768540
v -4.024975 5.000000 -4.768540
v -2.702243 5.000000 -4.768540
v 5.000000 3.757144 4.166663
v -5.000000 3.757144 4.166663
v -4.024976 3.757144 -4.768540
v -2.702245 3.757144 -4.768540
v -4.024978 1.915245 -4.768540
v -2.702246 1.915245 -4.768540
v -2.113636 0.000000 -4.350882
v -2.113635 3.757144 -4.350882
v -0.941458 0.000000 -4.350882
v 0.941458 3.757144 -4.350882
v 5.000000 5.000000 4.999997
v 5.000000 0.000000 4.999996
v 0.941456 1.915245 -4.350882
v -0.941456 3.757144 -4.350882
v -0.941458 1.915245 -4.350882
v -2.113636 1.915245 -4.350882
v 0.941459 5.000000 -4.768540
v 2.113637 5.000000 -4.768540
v 2.113634 0.000000 -4.768540
v -5.000000 5.000000 4.999996
v -5.000000 0.000000 4.999997
v 0.941458 3.757144 -4.768540
v 2.113636 3.757144 -4.768540
v 2.113634 1.915245 -4.768540
v 2.702248 5.000000 -4.768540
v 4.024979 5.000000 -4.768540
v 5.000000 5.000000 4.166663
v 5.000000 0.000000 4.166663
v 2.702246 3.757144 -4.768540
v 4.024977 3.757144 -4.768540
v 4.024976 0.000000 -4.768540
v 2.702244 0.000000 -4.768540
v 2.702244 1.915245 -4.768540
v 4.024976 1.915245 -4.768540
v -4.024976 3.757144 -4.612455
v -2.702245 3.757144 -4.612455
v -4.024978 1.915245 -4.612455
v -2.702246 1.915245 -4.612455
v 2.702246 3.757144 -4.612455
v 4.024977 3.757144 -4.612455
v 2.702244 1.915245 -4.612455
v 4.024976 1.915245 -4.612455
v 4.768540 5.000000 4.166670
v 4.768540 0.000000 4.166669
v -4.768540 5.000000 4.166669
v -4.768540 0.000000 4.166670
v -4.768540 3.757144 4.166670
v -5.000000 5.000000 4.166663
v 4.768540 3.757144 4.166670
v -5.000000 0.000000 4.166663
v -4.768540 1.915245 4.166670
v 4.768540 1.915245 4.166669
v 2.113634 0.000000 -4.350882
v 0.941456 0.000000 -4.350882
v 2.113636 3.757144 -4.350882
v 2.113634 1.915245 -4.350882
vt 0.9856 0.6000
vt 0.9337 0.5254
vt 0.9856 0.5254
vt 0.2339 0.6000
vt 0.2857 0.6746
vt 0.2339 0.6746
vt 0.2857 0.6000
vt 0.3002 0.6746
vt 0.2857 0.6746
vt 0.2857 0.7851
vt 0.3002 0.9000
vt 0.2857 0.9000
vt 0.8818 0.8000
vt 0.8300 0.7254
vt 0.8818 0.7254
vt 0.3112 0.5085
vt 0.3886 0.5000
vt 0.3886 0.5085
vt 0.5033 0.5000
vt 0.6225 0.5085
vt 0.5033 0.5085
vt 1.0000 0.6000
vt 0.9856 0.5254
vt 1.0000 0.5254
vt 0.8818 0.5746
vt 0.9337 0.6851
vt 0.8818 0.6851
vt 0.8818 0.5000
vt 0.9337 0.5746
vt 1.0000 0.4149
vt 0.9856 0.3000
vt 1.0000 0.3000
vt 1.0000 0.3000
vt 0.9856 0.1851
vt 1.0000 0.1851
vt 0.9856 0.4149
vt 1.0000 0.0746
vt 0.9856 0.0000
vt 1.0000 0.0000
vt 0.8818 0.6149
vt 0.8300 0.5000
vt 0.8818 0.5000
vt 0.9885 0.9000
vt 0.9741 0.7851
vt 0.9885 0.7851
vt 0.8300 0.6149
vt 0.9885 0.6746
vt 0.9741 0.6000
vt 0.9885 0.6000
vt 0.2339 0.7851
vt 0.2857 0.9000
vt 0.2339 0.9000
vt 0.3002 0.7851
vt 0.9856 0.4149
vt 0.9337 0.3000
vt 0.9856 0.3000
vt 0.2857 0.7851
vt 0.9337 0.4149
vt 0.6958 0.7536
vt 0.6698 0.6833
vt 0.6958 0.6833
vt 0.0000 0.7833
vt 0.1147 0.6703
vt 0.1147 0.7833
vt 0.3886 0.6232
vt 0.5033 0.5879
vt 0.5033 0.6232
vt 0.0000 0.8536
vt 0.1147 0.6000
vt 0.2339 0.6703
vt 0.6698 0.6105
vt 0.6438 0.5000
vt 0.6698 0.5000
vt 0.6225 0.5879
vt 0.3112 0.9121
vt 0.3886 0.8768
vt 0.3886 0.9121
vt 0.2339 0.8536
vt 0.1147 0.8536
vt 0.3112 0.6232
vt 0.3886 0.5879
vt 0.5033 0.8768
vt 0.5033 0.9121
vt 0.6698 0.5703
vt 0.6958 0.5703
vt 0.8300 0.6149
vt 0.7781 0.5000
vt 0.8300 0.5000
vt 0.6294 0.5000
vt 0.6438 0.5746
vt 0.6294 0.5746
vt 0.6438 0.6851
vt 0.6294 0.6851
vt 0.9741 0.6746
vt 0.9856 0.0746
vt 0.3112 0.8768
vt 0.3886 0.8065
vt 0.5033 1.0000
vt 0.6225 0.9915
vt 0.6225 1.0000
vt 0.7152 0.7210
vt 0.7249 0.8004
vt 0.7152 0.8004
vt 0.5033 0.9915
vt 0.6225 0.9121
vt 0.3112 1.0000
vt 0.3886 0.9915
vt 0.3886 1.0000
vt 0.3112 0.9915
vt 0.9597 0.6746
vt 0.9741 0.7851
vt 0.9597 0.7851
vt 0.2339 0.7833
vt 0.7055 0.8315
vt 0.6958 0.7210
vt 0.7055 0.7210
vt 0.8145 0.0000
vt 0.6998 0.5000
vt 0.6998 0.0000
vt 0.9597 0.7149
vt 0.9337 0.6000
vt 0.9597 0.6000
vt 0.1920 0.6000
vt 0.0774 0.0000
vt 0.1920 0.0000
vt 0.3112 0.6935
vt 0.3886 0.6935
vt 0.6225 0.6232
vt 0.6698 0.5000
vt 0.6958 0.5000
vt 0.0774 0.6000
vt 0.0000 0.0000
vt 0.3099 0.8210
vt 0.3002 0.7105
vt 0.3099 0.7105
vt 0.3112 0.8065
vt 0.5033 0.5000
vt 0.6225 0.0000
vt 0.6225 0.5000
vt 0.3112 0.6000
vt 0.3112 0.0000
vt 0.3112 0.5879
vt 0.7781 0.6105
vt 0.6958 0.5000
vt 0.7781 0.5000
vt 0.6958 0.6105
vt 0.7781 0.7210
vt 0.6958 0.7210
vt 0.3099 0.7105
vt 0.3002 0.6000
vt 0.3099 0.6000
vt 0.7443 0.8004
vt 0.7346 0.7210
vt 0.7443 0.7210
vt 0.0000 0.6703
vt 0.0000 0.6000
vt 0.9741 0.9000
vt 0.9597 0.9000
vt 0.7152 0.8315
vt 0.7055 0.7210
vt 0.7152 0.7210
vt 0.7346 0.8004
vt 0.7249 0.7210
vt 0.7346 0.7210
vt 0.7443 0.7210
vt 0.7541 0.8004
vt 0.7443 0.8004
vt 0.8300 0.7254
vt 0.7781 0.6149
vt 0.6438 0.8000
vt 0.6294 0.8000
vt 0.9337 0.0746
vt 0.9856 0.1851
vt 0.9337 0.1851
vt 0.9597 0.6000
vt 0.9741 0.6746
vt 0.9337 0.0000
vt 0.8145 0.5000
vt 0.3112 0.5000
vt 0.3886 0.0000
vt 0.3886 0.5000
vt 0.6225 0.5000
vt 0.6225 0.0000
vt 0.5033 0.0000
vt 0.8300 0.8000
vt 0.7781 0.7254
vt 0.9856 0.3000
vt 0.9337 0.3000
vt 0.9337 0.0000
vt 0.9856 0.0746
vt 0.9337 0.8000
vt 0.8818 0.8000
vt 0.9597 0.8254
vt 0.9337 0.7149
vt 0.6698 0.7254
vt 0.6438 0.6105
vt 0.9337 0.6000
vt 0.2857 0.6000
vt 0.3002 0.6000
vt 0.8300 0.8000
vt 0.3112 0.5000
vt 0.6225 0.5000
vt 0.9856 0.6000
vt 0.9337 0.5000
vt 0.9856 0.3000
vt 0.9741 0.9000
vt 0.6698 0.7536
vt 0.2339 0.6000
vt 0.6438 0.5000
vt 0.7249 0.7210
vt 0.6958 0.8315
vt 0.6225 0.8768
vt 0.0000 0.6000
vt 0.3002 0.8210
vt 0.6958 0.6105
vt 0.7781 0.6105
vt 0.3002 0.7105
vt 0.7346 0.8004
vt 0.7055 0.8315
vt 0.7249 0.8004
vt 0.7541 0.7210
vt 0.9741 0.6000
vt 0.9337 0.5000
vt 0.3112 0.0000
vt 0.7781 0.8000
vt 0.9856 0.0000
vt 0.9337 0.8254
vt 0.6438 0.7254
vn -1.0000 0.0000 0.0000
vn 0.0000 0.0000 -1.0000
vn 0.0000 -0.0000 1.0000
vn 1.0000 0.0000 0.0000
vn 0.0000 -1.0000 0.0000
vn 0.0000 1.0000 0.0000
s off
f 6/1/1 21/2/1 24/3/1
f 12/4/2 22/5/2 31/6/2
f 8/7/3 26/8/3 23/9/3
f 37/10/3 14/11/3 7/12/3
f 4/13/4 23/14/4 22/15/4
f 82/16/2 27/17/2 86/18/2
f 41/19/2 87/20/2 90/21/2
f 11/22/4 28/23/4 29/24/4
f 21/25/2 43/26/2 36/27/2
f 2/28/2 29/29/2 21/25/2
f 43/30/4 18/31/4 10/32/4
f 9/33/1 41/34/1 44/35/1
f 29/24/4 42/36/4 43/30/4
f 31/37/1 20/38/1 12/39/1
f 35/40/4 7/41/4 3/42/4
f 86/18/2 41/19/2 90/21/2
f 5/43/3 39/44/3 38/45/3
f 22/15/4 37/46/4 35/40/4
f 24/47/3 15/48/3 6/49/3
f 44/50/2 3/51/2 9/52/2
f 23/9/3 40/53/3 37/10/3
f 38/54/1 1/55/1 5/56/1
f 31/6/2 35/57/2 44/50/2
f 24/3/1 36/58/1 38/54/1
f 79/59/5 66/60/5 78/61/5
f 70/62/2 69/63/2 71/64/2
f 79/65/2 89/66/2 80/67/2
f 71/64/2 64/68/2 70/62/2
f 112/69/2 110/70/2 69/63/2
f 80/71/1 111/72/1 79/73/1
f 89/66/2 87/20/2 88/74/2
f 56/75/2 50/76/2 60/77/2
f 71/64/2 63/78/2 72/79/2
f 74/80/2 85/81/2 79/65/2
f 60/77/2 52/82/2 62/83/2
f 78/61/5 70/84/5 51/85/5
f 30/86/1 106/87/1 77/88/1
f 99/89/2 57/90/2 105/91/2
f 105/91/2 34/92/2 108/93/2
f 38/45/3 25/94/3 24/47/3
f 44/35/1 27/95/1 31/37/1
f 45/96/2 51/97/2 50/76/2
f 42/98/2 54/99/2 18/100/2
f 61/101/6 94/102/6 62/103/6
f 61/104/2 53/105/2 54/99/2
f 19/106/2 59/107/2 28/108/2
f 55/109/2 60/77/2 59/107/2
f 58/110/2 107/111/2 33/112/2
f 71/64/2 110/70/2 65/113/2
f 42/98/2 59/107/2 61/104/2
f 59/114/4 93/115/4 61/116/4
f 39/117/1 103/118/1 25/119/1
f 52/82/2 53/105/2 62/83/2
f 52/120/4 63/121/4 47/122/4
f 32/123/3 48/124/3 30/125/3
f 73/126/2 79/65/2 78/127/2
f 80/67/2 88/74/2 75/128/2
f 51/85/5 64/129/5 50/130/5
f 49/131/3 76/132/3 48/124/3
f 90/133/1 96/134/1 86/135/1
f 46/136/2 78/127/2 51/97/2
f 40/137/4 100/138/4 14/139/4
f 68/140/3 30/125/3 77/141/3
f 81/142/2 86/18/2 85/81/2
f 91/143/2 94/144/2 93/145/2
f 95/146/2 98/147/2 97/148/2
f 62/149/1 92/150/1 60/151/1
f 89/152/6 98/153/6 90/154/6
f 112/69/2 66/155/2 111/156/2
f 33/112/2 102/157/2 106/158/2
f 85/159/4 97/160/4 89/161/4
f 60/162/5 91/163/5 59/164/5
f 86/165/5 95/166/5 85/167/5
f 48/168/1 33/169/1 30/86/1
f 108/93/2 84/170/2 100/171/2
f 57/172/4 32/173/4 34/174/4
f 104/175/2 103/176/2 58/110/2
f 16/177/1 107/178/1 39/117/1
f 13/179/4 105/180/4 26/181/4
f 25/119/1 101/182/1 15/183/1
f 26/181/4 108/184/4 40/137/4
f 76/185/1 58/186/1 48/168/1
f 34/174/4 68/187/4 84/188/4
f 83/189/4 49/190/4 57/172/4
f 36/27/2 10/191/2 1/192/2
f 50/193/4 72/194/4 52/120/4
f 75/195/1 112/196/1 80/71/1
f 6/1/1 2/197/1 21/2/1
f 12/4/2 4/198/2 22/5/2
f 8/7/3 13/199/3 26/8/3
f 37/10/3 40/53/3 14/11/3
f 4/13/4 8/200/4 23/14/4
f 82/16/2 20/201/2 27/17/2
f 41/19/2 17/202/2 87/20/2
f 11/22/4 19/203/4 28/23/4
f 21/25/2 29/29/2 43/26/2
f 2/28/2 11/204/2 29/29/2
f 43/30/4 42/36/4 18/31/4
f 9/33/1 17/205/1 41/34/1
f 29/24/4 28/23/4 42/36/4
f 31/37/1 27/95/1 20/38/1
f 35/40/4 37/46/4 7/41/4
f 86/18/2 27/17/2 41/19/2
f 5/43/3 16/206/3 39/44/3
f 22/15/4 23/14/4 37/46/4
f 24/47/3 25/94/3 15/48/3
f 44/50/2 35/57/2 3/51/2
f 23/9/3 26/8/3 40/53/3
f 38/54/1 36/58/1 1/55/1
f 31/6/2 22/5/2 35/57/2
f 24/3/1 21/2/1 36/58/1
f 79/59/5 111/207/5 66/60/5
f 70/62/2 66/155/2 69/63/2
f 79/65/2 85/81/2 89/66/2
f 71/64/2 72/79/2 64/68/2
f 112/69/2 109/208/2 110/70/2
f 80/71/1 112/196/1 111/72/1
f 89/66/2 90/21/2 87/20/2
f 56/75/2 45/96/2 50/76/2
f 71/64/2 65/113/2 63/78/2
f 74/80/2 81/142/2 85/81/2
f 60/77/2 50/76/2 52/82/2
f 78/61/5 66/60/5 70/84/5
f 30/86/1 33/169/1 106/87/1
f 99/89/2 83/209/2 57/90/2
f 105/91/2 57/90/2 34/92/2
f 38/45/3 39/44/3 25/94/3
f 44/35/1 41/34/1 27/95/1
f 45/96/2 46/136/2 51/97/2
f 42/98/2 61/104/2 54/99/2
f 61/101/6 93/210/6 94/102/6
f 61/104/2 62/83/2 53/105/2
f 19/106/2 55/109/2 59/107/2
f 55/109/2 56/75/2 60/77/2
f 58/110/2 103/176/2 107/111/2
f 71/64/2 69/63/2 110/70/2
f 42/98/2 28/108/2 59/107/2
f 59/114/4 91/211/4 93/115/4
f 39/117/1 107/178/1 103/118/1
f 52/82/2 47/212/2 53/105/2
f 52/120/4 72/194/4 63/121/4
f 32/123/3 49/131/3 48/124/3
f 73/126/2 74/80/2 79/65/2
f 80/67/2 89/66/2 88/74/2
f 51/85/5 70/84/5 64/129/5
f 49/131/3 67/213/3 76/132/3
f 90/133/1 98/214/1 96/134/1
f 46/136/2 73/126/2 78/127/2
f 40/137/4 108/184/4 100/138/4
f 68/140/3 32/123/3 30/125/3
f 81/142/2 82/16/2 86/18/2
f 91/143/2 92/215/2 94/144/2
f 95/146/2 96/216/2 98/147/2
f 62/149/1 94/217/1 92/150/1
f 89/152/6 97/218/6 98/153/6
f 112/69/2 69/63/2 66/155/2
f 33/112/2 107/111/2 102/157/2
f 85/159/4 95/219/4 97/160/4
f 60/162/5 92/220/5 91/163/5
f 86/165/5 96/221/5 95/166/5
f 48/168/1 58/186/1 33/169/1
f 108/93/2 34/92/2 84/170/2
f 57/172/4 49/190/4 32/173/4
f 104/175/2 101/222/2 103/176/2
f 16/177/1 102/223/1 107/178/1
f 13/179/4 99/224/4 105/180/4
f 25/119/1 103/118/1 101/182/1
f 26/181/4 105/180/4 108/184/4
f 76/185/1 104/225/1 58/186/1
f 34/174/4 32/173/4 68/187/4
f 83/189/4 67/226/4 49/190/4
f 36/27/2 43/26/2 10/191/2
f 50/193/4 64/227/4 72/194/4
f 75/195/1 109/228/1 112/196/1
o Cube.010_Cube.014
v -5.250000 4.500000 5.250000
v -5.250000 5.500000 5.250000
v -5.250000 4.500000 -5.250000
v -5.250000 5.500000 -5.250000
v 5.250000 4.500000 5.250000
v 5.250000 5.500000 5.250000
v 5.250000 4.500000 -5.250000
v 5.250000 5.500000 -5.250000
vt 0.9310 0.5000
vt 1.0000 0.0000
vt 1.0000 0.5000
vt 0.7931 0.5000
vt 0.8621 0.0000
vt 0.8621 0.5000
vt 0.7241 0.5000
vt 0.7931 0.0000
vt 0.7931 0.5000
vt 0.9310 0.0000
vt 0.8621 0.5000
vt 0.8621 0.0000
vt 0.7241 0.5000
vt 0.0000 1.0000
vt 0.0000 0.5000
vt 0.0000 0.5000
vt 0.7241 0.0000
vt 0.9310 0.0000
vt 0.7931 0.0000
vt 0.7241 1.0000
vt 0.0000 0.0000
vn -1.0000 0.0000 0.0000
vn 0.0000 0.0000 -1.0000
vn 1.0000 0.0000 0.0000
vn 0.0000 0.0000 1.0000
vn 0.0000 -1.0000 0.0000
vn 0.0000 1.0000 0.0000
s off
f 114/229/7 115/230/7 113/231/7
f 116/232/8 119/233/8 115/234/8
f 120/235/9 117/236/9 119/237/9
f 118/238/10 113/239/10 117/240/10
f 119/241/11 113/242/11 115/243/11
f 116/244/12 118/245/12 120/235/12
f 114/229/7 116/246/7 115/230/7
f 116/232/8 120/247/8 119/233/8
f 120/235/9 118/245/9 117/236/9
f 118/238/10 114/229/10 113/239/10
f 119/241/11 117/248/11 113/242/11
f 116/244/12 114/249/12 118/245/12
o Cube.009_Cube.013
v -5.000000 5.000000 -5.000000
v -5.000000 10.000000 -5.000000
v 5.000000 5.000000 -5.000000
v 5.000000 10.000000 -5.000000
v -5.000000 5.000000 -4.166666
v -5.000000 10.000000 -4.166667
v 5.000000 5.000000 -4.166667
v 5.000000 10.000000 -4.166666
v 4.166666 5.000000 -5.000000
v -4.166667 5.000000 -5.000000
v -4.166666 10.000000 -5.000000
v 4.166667 10.000000 -5.000000
v 4.768540 10.000000 -4.166666
v 4.768540 5.000000 -4.166667
v -4.768540 10.000000 -4.166667
v -4.768540 5.000000 -4.166666
v 4.166666 5.000000 -4.768540
v -4.166667 5.000000 -4.768540
v -4.166666 10.000000 -4.768540
v 4.166667 10.000000 -4.768540
v -5.000000 8.757145 -5.000000
v 5.000000 8.757145 -5.000000
v 5.000000 8.757145 -4.166667
v -5.000000 8.757145 -4.166667
v -4.768540 8.757145 -4.166667
v 4.768540 8.757145 -4.166667
v 4.166667 8.757145 -4.768540
v -4.166667 8.757145 -4.768540
v -4.166667 8.757145 -5.000000
v -5.000000 5.652936 4.999997
v 4.166667 8.757145 -5.000000
v 5.000000 5.652936 4.999996
v 0.618976 5.652936 -5.000000
v -0.618978 5.652936 -5.000000
v 0.618978 8.757145 -5.000000
v -0.618976 8.757145 -5.000000
v -5.000000 5.652936 4.166663
v 5.000000 5.652936 4.166663
v 5.000000 5.652936 -5.000000
v -5.000000 5.652936 -5.000000
v 5.000000 5.652936 -4.166667
v -5.000000 5.652936 -4.166666
v -4.768540 5.652936 -4.166666
v 4.768540 5.652936 -4.166667
v 4.166666 5.652936 -4.768540
v -4.166667 5.652936 -4.768540
v -4.166667 5.652936 -5.000000
v 4.166666 5.652936 -5.000000
v -0.618978 5.000000 -5.000000
v 0.618976 5.000000 -5.000000
v 0.618979 10.000000 -5.000000
v -0.618975 10.000000 -5.000000
v -2.297752 10.000000 -4.768540
v -1.023465 10.000000 -4.768540
v -1.023469 5.000000 -4.768540
v -2.297756 5.000000 -4.768540
v -5.000000 8.757145 4.999997
v 5.000000 8.757145 4.999997
v -2.297754 8.757145 -4.768540
v -1.023467 8.757145 -4.768540
v -2.297756 5.652936 -4.768540
v -1.023469 5.652936 -4.768540
v -2.702247 5.000000 -4.768540
v -4.024978 5.000000 -4.768540
v -4.024975 10.000000 -4.768540
v -2.702243 10.000000 -4.768540
v 5.000000 8.757145 4.166663
v -5.000000 8.757145 4.166663
v -4.024976 8.757145 -4.768540
v -2.702245 8.757145 -4.768540
v -4.024978 5.652936 -4.768540
v -2.702246 5.652936 -4.768540
v -0.618975 10.000000 -4.768540
v 0.618979 10.000000 -4.768540
v 0.618976 5.000000 -4.768540
v -0.618978 5.000000 -4.768540
v 5.000000 10.000000 4.999997
v 5.000000 5.000000 4.999996
v -0.618976 8.757145 -4.768540
v 0.618978 8.757145 -4.768540
v -0.618978 5.652936 -4.768540
v 0.618976 5.652936 -4.768540
v 1.023470 10.000000 -4.768540
v 2.297757 10.000000 -4.768540
v 2.297753 5.000000 -4.768540
v 1.023466 5.000000 -4.768540
v -5.000000 10.000000 4.999996
v -5.000000 5.000000 4.999997
v 1.023468 8.757145 -4.768540
v 2.297755 8.757145 -4.768540
v 1.023467 5.652936 -4.768540
v 2.297753 5.652936 -4.768540
v 2.702248 10.000000 -4.768540
v 4.024979 10.000000 -4.768540
v 5.000000 10.000000 4.166663
v 5.000000 5.000000 4.166663
v 2.702246 8.757145 -4.768540
v 4.024977 8.757145 -4.768540
v 4.024976 5.000000 -4.768540
v 2.702244 5.000000 -4.768540
v 2.702244 5.652936 -4.768540
v 4.024976 5.652936 -4.768540
v -2.297754 8.757145 -4.612455
v -1.023467 8.757145 -4.612455
v -2.297756 5.652936 -4.612455
v -1.023469 5.652936 -4.612455
v -4.024976 8.757145 -4.612455
v -2.702245 8.757145 -4.612455
v -4.024978 5.652936 -4.612455
v -2.702246 5.652936 -4.612455
v 1.023468 8.757145 -4.612455
v 2.297755 8.757145 -4.612455
v 1.023467 5.652936 -4.612455
v 2.297753 5.652936 -4.612455
v 2.702246 8.757145 -4.612455
v 4.024977 8.757145 -4.612455
v 2.702244 5.652936 -4.612455
v 4.024976 5.652936 -4.612455
v 4.768540 10.000000 4.166670
v 4.768540 5.000000 4.166669
v -4.768540 10.000000 4.166669
v -4.768540 5.000000 4.166670
v -4.768540 8.757145 4.166670
v -5.000000 10.000000 4.166663
v 4.768540 8.757145 4.166670
v -5.000000 5.000000 4.166663
v -4.768540 5.652936 4.166670
v 4.768540 5.652936 4.166669
vt 0.9668 0.3085
vt 0.9159 0.2318
vt 0.9668 0.2318
vt 0.2166 0.6170
vt 0.2675 0.6936
vt 0.2166 0.6936
vt 0.2816 0.6170
vt 0.2958 0.6936
vt 0.2816 0.6936
vt 0.2816 0.8852
vt 0.2958 0.9254
vt 0.2816 0.9254
vt 0.8650 0.8226
vt 0.8142 0.7459
vt 0.8650 0.7459
vt 0.2080 0.6170
vt 0.2166 0.6936
vt 0.2080 0.6936
vt 0.2166 0.8852
vt 0.2080 0.9254
vt 0.2080 0.8852
vt 0.9809 0.6170
vt 0.9668 0.5403
vt 0.9809 0.5403
vt 0.9159 0.3852
vt 0.9668 0.5767
vt 0.9159 0.5767
vt 0.9159 0.3085
vt 0.9668 0.3852
vt 0.9809 0.3488
vt 0.9668 0.3085
vt 0.9809 0.3085
vt 0.9809 0.3085
vt 0.9668 0.2682
vt 0.9809 0.2682
vt 0.9668 0.3488
vt 0.9809 0.0767
vt 0.9668 0.0000
vt 0.9809 0.0000
vt 0.8650 0.5544
vt 0.8142 0.5141
vt 0.8650 0.5141
vt 0.9583 0.9254
vt 0.9442 0.8852
vt 0.9583 0.8852
vt 0.8142 0.5544
vt 0.9583 0.6936
vt 0.9442 0.6170
vt 0.9583 0.6170
vt 0.2166 0.8852
vt 0.2675 0.9254
vt 0.2166 0.9254
vt 0.2958 0.8852
vt 0.9668 0.0403
vt 0.9159 0.0000
vt 0.9668 0.0000
vt 0.2675 0.8852
vt 0.2816 0.9254
vt 0.2675 0.8852
vt 0.2816 0.8852
vt 0.9159 0.0403
vt 0.4972 0.5908
vt 0.5219 0.7823
vt 0.4972 0.7823
vt 0.0000 0.6936
vt 0.0247 0.8852
vt 0.0000 0.8852
vt 0.1272 0.6936
vt 0.1025 0.8852
vt 0.1025 0.6936
vt 0.5219 0.5141
vt 0.5975 0.5908
vt 0.5219 0.5908
vt 0.0247 0.9254
vt 0.0000 0.9254
vt 0.1025 0.9254
vt 0.1272 0.8852
vt 0.1272 0.9254
vt 0.3947 0.5141
vt 0.4194 0.5908
vt 0.3947 0.5908
vt 0.4972 0.5141
vt 0.5219 0.5908
vt 0.0000 0.6170
vt 0.0247 0.6936
vt 0.1025 0.6170
vt 0.4194 0.7823
vt 0.3947 0.7823
vt 0.4972 0.8226
vt 0.4194 0.8226
vt 0.8142 0.5544
vt 0.7633 0.5141
vt 0.8142 0.5141
vt 0.9159 0.6170
vt 0.9301 0.6936
vt 0.9159 0.6936
vt 0.9301 0.8852
vt 0.9159 0.8852
vt 0.9442 0.6936
vt 0.9668 0.0767
vt 0.9583 0.8852
vt 0.9725 0.9254
vt 0.9583 0.9254
vt 0.4194 0.5141
vt 0.3053 0.7823
vt 0.3140 0.8226
vt 0.3053 0.8226
vt 0.2675 0.6936
vt 0.2816 0.6936
vt 0.3053 0.8226
vt 0.3148 0.9042
vt 0.3053 0.9042
vt 0.3140 0.7823
vt 0.3947 0.8226
vt 0.3053 0.5141
vt 0.3140 0.5908
vt 0.3053 0.5908
vt 0.3140 0.5141
vt 0.9301 0.6936
vt 0.9442 0.8852
vt 0.9301 0.8852
vt 0.5219 0.8226
vt 0.9809 0.3830
vt 0.9905 0.5746
vt 0.9809 0.5746
vt 0.5219 0.7823
vt 0.5975 0.8226
vt 0.5219 0.8226
vt 0.8761 0.0000
vt 0.6865 0.5141
vt 0.6865 0.0000
vt 0.9905 0.1915
vt 0.9809 0.0000
vt 0.9905 0.0000
vt 0.2654 0.6170
vt 0.0759 0.0000
vt 0.2654 0.0000
vt 0.0247 0.6170
vt 0.5975 0.7823
vt 0.3625 0.8226
vt 0.3720 0.9012
vt 0.3625 0.9012
vt 0.0759 0.6170
vt 0.0000 0.0000
vt 0.9809 0.1915
vt 0.9905 0.3830
vt 0.9809 0.3830
vt 0.9583 0.6170
vt 0.9725 0.6936
vt 0.9583 0.6936
vt 0.5707 0.5141
vt 0.6106 0.0000
vt 0.6106 0.5141
vt 0.3053 0.6170
vt 0.3053 0.0000
vt 0.1272 0.6170
vt 0.6017 0.7057
vt 0.6795 0.8972
vt 0.6017 0.8972
vt 0.6825 0.5141
vt 0.7633 0.7057
vt 0.6825 0.7057
vt 0.6795 0.7057
vt 0.7574 0.8972
vt 0.6795 0.8972
vt 0.6017 0.5141
vt 0.6825 0.7057
vt 0.6017 0.7057
vt 0.9820 1.0000
vt 0.9725 0.8085
vt 0.9820 0.8085
vt 0.3339 0.9042
vt 0.3244 0.8226
vt 0.3339 0.8226
vt 0.3530 0.9012
vt 0.3434 0.8226
vt 0.3530 0.8226
vt 0.2675 0.6170
vt 0.2816 0.6170
vt 0.9820 0.6170
vt 0.9915 0.8085
vt 0.9820 0.8085
vt 0.9442 0.9254
vt 0.9301 0.9254
vt 0.3530 0.8226
vt 0.3625 0.9012
vt 0.3530 0.9012
vt 0.3816 0.9012
vt 0.3720 0.8226
vt 0.3816 0.8226
vt 0.9820 0.8085
vt 0.9725 0.6170
vt 0.9820 0.6170
vt 0.9820 0.8085
vt 0.9915 1.0000
vt 0.9820 1.0000
vt 0.3244 0.9042
vt 0.3148 0.8226
vt 0.3244 0.8226
vt 0.3339 0.8226
vt 0.3434 0.9042
vt 0.3339 0.9042
vt 0.9905 0.0000
vt 1.0000 0.1915
vt 0.9905 0.1915
vt 0.8142 0.7459
vt 0.7633 0.5544
vt 0.9725 0.8852
vt 0.9301 0.9254
vt 0.9159 0.9254
vt 0.9159 0.7459
vt 0.8650 0.5544
vt 0.9159 0.5544
vt 0.9301 0.6170
vt 0.9442 0.6936
vt 0.9159 0.0000
vt 0.8761 0.5141
vt 0.3053 0.5141
vt 0.3812 0.0000
vt 0.3812 0.5141
vt 0.6106 0.5141
vt 0.6106 0.0000
vt 0.5707 0.0000
vt 0.8142 0.8226
vt 0.7633 0.7459
vt 0.8650 0.5141
vt 0.9159 0.5141
vt 0.9159 0.8226
vt 0.8650 0.7459
vt 0.9668 0.6170
vt 0.9159 0.6170
vt 0.2675 0.6170
vt 0.2958 0.6170
vt 0.8142 0.8226
vt 0.2166 0.6170
vt 0.2166 0.9254
vt 0.9668 0.6170
vt 0.9668 0.3085
vt 0.9668 0.3085
vt 0.9442 0.9254
vt 0.2675 0.9254
vt 0.5975 0.5141
vt 0.5219 0.5141
vt 0.9301 0.6170
vt 0.3148 0.8226
vt 0.9905 0.3830
vt 0.9809 0.1915
vt 0.3720 0.8226
vt 0.0000 0.6170
vt 0.9905 0.1915
vt 0.9725 0.6170
vt 0.6795 0.7057
vt 0.7633 0.5141
vt 0.7574 0.7057
vt 0.6825 0.5141
vt 0.9725 1.0000
vt 0.3244 0.9042
vt 0.3434 0.9012
vt 0.9915 0.6170
vt 0.3625 0.8226
vt 0.3720 0.9012
vt 0.9725 0.8085
vt 0.9915 0.8085
vt 0.3148 0.9042
vt 0.3434 0.8226
vt 1.0000 0.0000
vt 0.9442 0.6170
vt 0.9159 0.5141
vt 0.3053 0.0000
vt 0.7633 0.8226
vt 0.8650 0.8226
vn -1.0000 0.0000 0.0000
vn 0.0000 0.0000 -1.0000
vn 0.0000 -0.0000 1.0000
vn 1.0000 0.0000 0.0000
vn 0.0000 1.0000 0.0000
vn 0.0000 -1.0000 0.0000
s off
f 126/250/13 141/251/13 144/252/13
f 132/253/14 142/254/14 151/255/14
f 128/256/15 146/257/15 143/258/15
f 161/259/15 134/260/15 127/261/15
f 124/262/16 143/263/16 142/264/16
f 214/265/14 147/266/14 218/267/14
f 165/268/14 219/269/14 222/270/14
f 131/271/16 148/272/16 149/273/16
f 141/274/14 167/275/14 160/276/14
f 122/277/14 149/278/14 141/274/14
f 167/279/16 138/280/16 130/281/16
f 129/282/13 165/283/13 168/284/13
f 149/273/16 166/285/16 167/279/16
f 151/286/13 140/287/13 132/288/13
f 159/289/16 127/290/16 123/291/16
f 218/267/14 165/268/14 222/270/14
f 125/292/15 163/293/15 162/294/15
f 142/264/16 161/295/16 159/289/16
f 144/296/15 135/297/15 126/298/15
f 168/299/14 123/300/14 129/301/14
f 143/258/15 164/302/15 161/259/15
f 162/303/13 121/304/13 125/305/13
f 151/255/14 159/306/14 168/299/14
f 195/307/16 153/308/16 202/309/16
f 144/252/13 160/310/13 162/303/13
f 180/311/14 201/312/14 182/313/14
f 200/314/14 211/315/14 202/316/14
f 217/317/14 212/318/14 210/319/14
f 172/320/14 155/321/14 156/322/14
f 202/316/14 206/323/14 195/324/14
f 211/315/14 205/325/14 206/323/14
f 221/326/14 219/269/14 220/327/14
f 186/328/14 179/329/14 190/330/14
f 174/331/14 199/332/14 180/311/14
f 194/333/14 209/334/14 200/314/14
f 204/335/14 217/317/14 210/319/14
f 190/330/14 181/336/14 192/337/14
f 181/336/14 175/338/14 176/339/14
f 150/340/13 246/341/13 208/342/13
f 239/343/14 187/344/14 245/345/14
f 245/345/14 158/346/14 248/347/14
f 162/294/15 145/348/15 144/296/15
f 168/284/13 147/349/13 151/286/13
f 201/350/13 169/351/13 196/352/13
f 173/353/14 180/311/14 179/329/14
f 166/354/14 184/355/14 138/356/14
f 202/309/16 155/357/16 200/358/16
f 191/359/17 230/360/17 192/361/17
f 191/362/14 183/363/14 184/355/14
f 139/364/14 189/365/14 148/366/14
f 185/367/14 190/330/14 189/365/14
f 188/368/14 247/369/14 157/370/14
f 182/313/14 196/371/14 175/338/14
f 148/366/14 191/362/14 166/354/14
f 189/372/16 229/373/16 191/374/16
f 154/375/14 170/376/14 169/377/14
f 163/378/13 243/379/13 145/380/13
f 192/337/14 176/339/14 183/363/14
f 212/381/13 232/382/13 210/383/13
f 152/384/15 177/385/15 150/386/15
f 203/387/14 210/319/14 209/334/14
f 221/326/14 205/325/14 212/318/14
f 153/388/14 156/322/14 155/321/14
f 211/389/17 234/390/17 212/391/17
f 178/392/15 207/393/15 177/385/15
f 222/394/13 236/395/13 218/396/13
f 193/397/13 156/398/13 199/399/13
f 164/400/16 240/401/16 134/402/16
f 198/403/15 150/386/15 208/404/15
f 213/405/14 218/267/14 217/317/14
f 223/406/14 226/407/14 225/408/14
f 227/409/14 230/410/14 229/411/14
f 231/412/14 234/413/14 233/414/14
f 235/415/14 238/416/14 237/417/14
f 192/418/13 228/419/13 190/420/13
f 221/421/17 238/422/17 222/423/17
f 180/424/18 223/425/18 179/426/18
f 200/358/16 171/427/16 194/428/16
f 179/429/16 225/430/16 181/431/16
f 157/370/14 242/432/14 246/433/14
f 181/434/17 226/435/17 182/436/17
f 210/437/18 231/438/18 209/439/18
f 182/440/13 224/441/13 180/442/13
f 217/443/16 237/444/16 221/445/16
f 190/446/18 227/447/18 189/448/18
f 218/449/18 235/450/18 217/451/18
f 209/452/16 233/453/16 211/454/16
f 177/455/13 157/456/13 150/340/13
f 199/399/13 154/457/13 201/350/13
f 248/347/14 216/458/14 240/459/14
f 187/460/16 152/461/16 158/462/16
f 244/463/14 243/464/14 188/368/14
f 136/465/13 247/466/13 163/378/13
f 133/467/16 245/468/16 146/469/16
f 145/380/13 241/470/13 135/471/13
f 146/469/16 248/472/16 164/400/16
f 207/473/13 188/474/13 177/455/13
f 158/462/16 198/475/16 216/476/16
f 215/477/16 178/478/16 187/460/16
f 160/276/14 130/479/14 121/480/14
f 126/250/13 122/277/13 141/251/13
f 132/253/14 124/481/14 142/254/14
f 128/256/15 133/482/15 146/257/15
f 161/259/15 164/302/15 134/260/15
f 124/262/16 128/483/16 143/263/16
f 214/265/14 140/484/14 147/266/14
f 165/268/14 137/485/14 219/269/14
f 131/271/16 139/486/16 148/272/16
f 141/274/14 149/278/14 167/275/14
f 122/277/14 131/487/14 149/278/14
f 167/279/16 166/285/16 138/280/16
f 129/282/13 137/488/13 165/283/13
f 149/273/16 148/272/16 166/285/16
f 151/286/13 147/349/13 140/287/13
f 159/289/16 161/295/16 127/290/16
f 218/267/14 147/266/14 165/268/14
f 125/292/15 136/489/15 163/293/15
f 142/264/16 143/263/16 161/295/16
f 144/296/15 145/348/15 135/297/15
f 168/299/14 159/306/14 123/300/14
f 143/258/15 146/257/15 164/302/15
f 162/303/13 160/310/13 121/304/13
f 151/255/14 142/254/14 159/306/14
f 195/307/16 170/490/16 153/308/16
f 144/252/13 141/251/13 160/310/13
f 180/311/14 199/332/14 201/312/14
f 200/314/14 209/334/14 211/315/14
f 217/317/14 221/326/14 212/318/14
f 172/320/14 171/491/14 155/321/14
f 202/316/14 211/315/14 206/323/14
f 211/315/14 212/318/14 205/325/14
f 221/326/14 222/270/14 219/269/14
f 186/328/14 173/353/14 179/329/14
f 174/331/14 193/492/14 199/332/14
f 194/333/14 203/387/14 209/334/14
f 204/335/14 213/405/14 217/317/14
f 190/330/14 179/329/14 181/336/14
f 181/336/14 182/313/14 175/338/14
f 150/340/13 157/456/13 246/341/13
f 239/343/14 215/493/14 187/344/14
f 245/345/14 187/344/14 158/346/14
f 162/294/15 163/293/15 145/348/15
f 168/284/13 165/283/13 147/349/13
f 201/350/13 154/457/13 169/351/13
f 173/353/14 174/331/14 180/311/14
f 166/354/14 191/362/14 184/355/14
f 202/309/16 153/308/16 155/357/16
f 191/359/17 229/494/17 230/360/17
f 191/362/14 192/337/14 183/363/14
f 139/364/14 185/367/14 189/365/14
f 185/367/14 186/328/14 190/330/14
f 188/368/14 243/464/14 247/369/14
f 182/313/14 201/312/14 196/371/14
f 148/366/14 189/365/14 191/362/14
f 189/372/16 227/495/16 229/373/16
f 154/375/14 153/388/14 170/376/14
f 163/378/13 247/466/13 243/379/13
f 192/337/14 181/336/14 176/339/14
f 212/381/13 234/496/13 232/382/13
f 152/384/15 178/392/15 177/385/15
f 203/387/14 204/335/14 210/319/14
f 221/326/14 220/327/14 205/325/14
f 153/388/14 154/375/14 156/322/14
f 211/389/17 233/497/17 234/390/17
f 178/392/15 197/498/15 207/393/15
f 222/394/13 238/499/13 236/395/13
f 193/397/13 172/500/13 156/398/13
f 164/400/16 248/472/16 240/401/16
f 198/403/15 152/384/15 150/386/15
f 213/405/14 214/265/14 218/267/14
f 223/406/14 224/501/14 226/407/14
f 227/409/14 228/502/14 230/410/14
f 231/412/14 232/503/14 234/413/14
f 235/415/14 236/504/14 238/416/14
f 192/418/13 230/505/13 228/419/13
f 221/421/17 237/506/17 238/422/17
f 180/424/18 224/507/18 223/425/18
f 200/358/16 155/357/16 171/427/16
f 179/429/16 223/508/16 225/430/16
f 157/370/14 247/369/14 242/432/14
f 181/434/17 225/509/17 226/435/17
f 210/437/18 232/510/18 231/438/18
f 182/440/13 226/511/13 224/441/13
f 217/443/16 235/512/16 237/444/16
f 190/446/18 228/513/18 227/447/18
f 218/449/18 236/514/18 235/450/18
f 209/452/16 231/515/16 233/453/16
f 177/455/13 188/474/13 157/456/13
f 199/399/13 156/398/13 154/457/13
f 248/347/14 158/346/14 216/458/14
f 187/460/16 178/478/16 152/461/16
f 244/463/14 241/516/14 243/464/14
f 136/465/13 242/517/13 247/466/13
f 133/467/16 239/518/16 245/468/16
f 145/380/13 243/379/13 241/470/13
f 146/469/16 245/468/16 248/472/16
f 207/473/13 244/519/13 188/474/13
f 158/462/16 152/461/16 198/475/16
f 215/477/16 197/520/16 178/478/16
f 160/276/14 167/275/14 130/479/14
o Cube.008_Cube.012
v -5.250000 9.500000 5.250000
v -5.250000 10.500000 5.250000
v -5.250000 9.500000 -5.250000
v -5.250000 10.500000 -5.250000
v 5.250000 9.500000 5.250000
v 5.250000 10.500000 5.250000
v 5.250000 9.500000 -5.250000
v 5.250000 10.500000 -5.250000
vt 0.9310 0.5000
vt 1.0000 0.0000
vt 1.0000 0.5000
vt 0.7931 0.5000
vt 0.8621 0.0000
vt 0.8621 0.5000
vt 0.7241 0.5000
vt 0.7931 0.0000
vt 0.7931 0.5000
vt 0.9310 0.0000
vt 0.8621 0.5000
vt 0.8621 0.0000
vt 0.7241 0.5000
vt 0.0000 1.0000
vt 0.0000 0.5000
vt 0.0000 0.5000
vt 0.7241 0.0000
vt 0.9310 0.0000
vt 0.7931 0.0000
vt 0.7241 1.0000
vt 0.0000 0.0000
vn -1.0000 0.0000 0.0000
vn 0.0000 0.0000 -1.0000
vn 1.0000 0.0000 0.0000
vn 0.0000 0.0000 1.0000
vn 0.0000 -1.0000 0.0000
vn 0.0000 1.0000 0.0000
s off
f 250/521/19 251/522/19 249/523/19
f 252/524/20 255/525/20 251/526/20
f 256/527/21 253/528/21 255/529/21
f 254/530/22 249/531/22 253/532/22
f 255/533/23 249/534/23 251/535/23
f 252/536/24 254/537/24 256/527/24
f 250/521/19 252/538/19 251/522/19
f 252/524/20 256/539/20 255/525/20
f 256/527/21 254/537/21 253/528/21
f 254/530/22 250/521/22 249/531/22
f 255/533/23 253/540/23 249/534/23
f 252/536/24 250/541/24 254/537/24
o Cube.007_Cube.011
v -5.000000 10.000000 -5.000000
v -5.000000 15.000000 -5.000000
v 5.000000 10.000000 -5.000000
v 5.000000 15.000000 -5.000000
v -5.000000 10.000000 -4.166666
v -5.000000 15.000000 -4.166667
v 5.000000 10.000000 -4.166667
v 5.000000 15.000000 -4.166666
v 4.166666 10.000000 -5.000000
v -4.166667 10.000000 -5.000000
v -4.166666 15.000000 -5.000000
v 4.166667 15.000000 -5.000000
v 4.768540 15.000000 -4.166666
v 4.768540 10.000000 -4.166667
v -4.768540 15.000000 -4.166667
v -4.768540 10.000000 -4.166666
v 4.166666 10.000000 -4.768540
v -4.166667 10.000000 -4.768540
v -4.166666 15.000000 -4.768540
v 4.166667 15.000000 -4.768540
v -5.000000 13.757145 -5.000000
v 5.000000 13.757145 -5.000000
v 5.000000 13.757145 -4.166667
v -5.000000 13.757145 -4.166667
v -4.768540 13.757145 -4.166667
v 4.768540 13.757145 -4.166667
v 4.166667 13.757145 -4.768540
v -4.166667 13.757145 -4.768540
v -4.166667 13.757145 -5.000000
v -5.000000 10.652937 4.999997
v 4.166667 13.757145 -5.000000
v 5.000000 10.652937 4.999996
v 0.618976 10.652937 -5.000000
v -0.618978 10.652937 -5.000000
v 0.618978 13.757145 -5.000000
v -0.618976 13.757145 -5.000000
v -5.000000 10.652937 4.166663
v 5.000000 10.652937 4.166663
v 5.000000 10.652937 -5.000000
v -5.000000 10.652937 -5.000000
v 5.000000 10.652937 -4.166667
v -5.000000 10.652937 -4.166666
v -4.768540 10.652937 -4.166666
v 4.768540 10.652937 -4.166667
v 4.166666 10.652937 -4.768540
v -4.166667 10.652937 -4.768540
v -4.166667 10.652937 -5.000000
v 4.166666 10.652937 -5.000000
v -0.618978 10.000000 -5.000000
v 0.618976 10.000000 -5.000000
v 0.618979 15.000000 -5.000000
v -0.618975 15.000000 -5.000000
v -2.297752 15.000000 -4.768540
v -1.023465 15.000000 -4.768540
v -1.023469 10.000000 -4.768540
v -2.297756 10.000000 -4.768540
v -5.000000 13.757145 4.999997
v 5.000000 13.757145 4.999997
v -2.297754 13.757145 -4.768540
v -1.023467 13.757145 -4.768540
v -2.297756 10.652937 -4.768540
v -1.023469 10.652937 -4.768540
v -2.702247 10.000000 -4.768540
v -4.024978 10.000000 -4.768540
v -4.024975 15.000000 -4.768540
v -2.702243 15.000000 -4.768540
v 5.000000 13.757145 4.166663
v -5.000000 13.757145 4.166663
v -4.024976 13.757145 -4.768540
v -2.702245 13.757145 -4.768540
v -4.024978 10.652937 -4.768540
v -2.702246 10.652937 -4.768540
v -0.618975 15.000000 -4.768540
v 0.618979 15.000000 -4.768540
v 0.618976 10.000000 -4.768540
v -0.618978 10.000000 -4.768540
v 5.000000 15.000000 4.999997
v 5.000000 10.000000 4.999996
v -0.618976 13.757145 -4.768540
v 0.618978 13.757145 -4.768540
v -0.618978 10.652937 -4.768540
v 0.618976 10.652937 -4.768540
v 1.023470 15.000000 -4.768540
v 2.297757 15.000000 -4.768540
v 2.297753 10.000000 -4.768540
v 1.023466 10.000000 -4.768540
v -5.000000 15.000000 4.999996
v -5.000000 10.000000 4.999997
v 1.023468 13.757145 -4.768540
v 2.297755 13.757145 -4.768540
v 1.023467 10.652937 -4.768540
v 2.297753 10.652937 -4.768540
v 2.702248 15.000000 -4.768540
v 4.024979 15.000000 -4.768540
v 5.000000 15.000000 4.166663
v 5.000000 10.000000 4.166663
v 2.702246 13.757145 -4.768540
v 4.024977 13.757145 -4.768540
v 4.024976 10.000000 -4.768540
v 2.702244 10.000000 -4.768540
v 2.702244 10.652937 -4.768540
v 4.024976 10.652937 -4.768540
v -2.297754 13.757145 -4.612455
v -1.023467 13.757145 -4.612455
v -2.297756 10.652937 -4.612455
v -1.023469 10.652937 -4.612455
v -4.024976 13.757145 -4.612455
v -2.702245 13.757145 -4.612455
v -4.024978 10.652937 -4.612455
v -2.702246 10.652937 -4.612455
v 1.023468 13.757145 -4.612455
v 2.297755 13.757145 -4.612455
v 1.023467 10.652937 -4.612455
v 2.297753 10.652937 -4.612455
v 2.702246 13.757145 -4.612455
v 4.024977 13.757145 -4.612455
v 2.702244 10.652937 -4.612455
v 4.024976 10.652937 -4.612455
v 4.768540 15.000000 4.166670
v 4.768540 10.000000 4.166669
v -4.768540 15.000000 4.166669
v -4.768540 10.000000 4.166670
v -4.768540 13.757145 4.166670
v -5.000000 15.000000 4.166663
v 4.768540 13.757145 4.166670
v -5.000000 10.000000 4.166663
v -4.768540 10.652937 4.166670
v 4.768540 10.652937 4.166669
vt 0.9668 0.3085
vt 0.9159 0.2318
vt 0.9668 0.2318
vt 0.2166 0.6170
vt 0.2675 0.6936
vt 0.2166 0.6936
vt 0.2816 0.6170
vt 0.2958 0.6936
vt 0.2816 0.6936
vt 0.2816 0.8852
vt 0.2958 0.9254
vt 0.2816 0.9254
vt 0.8650 0.8226
vt 0.8142 0.7459
vt 0.8650 0.7459
vt 0.2080 0.6170
vt 0.2166 0.6936
vt 0.2080 0.6936
vt 0.2080 0.8852
vt 0.2166 0.9254
vt 0.2080 0.9254
vt 0.9809 0.6170
vt 0.9668 0.5403
vt 0.9809 0.5403
vt 0.9159 0.3852
vt 0.9668 0.5767
vt 0.9159 0.5767
vt 0.9159 0.3085
vt 0.9668 0.3852
vt 0.9809 0.3488
vt 0.9668 0.3085
vt 0.9809 0.3085
vt 0.9809 0.3085
vt 0.9668 0.2682
vt 0.9809 0.2682
vt 0.9668 0.3488
vt 0.9809 0.0767
vt 0.9668 0.0000
vt 0.9809 0.0000
vt 0.8650 0.5544
vt 0.8142 0.5141
vt 0.8650 0.5141
vt 0.2166 0.8852
vt 0.9583 0.9254
vt 0.9442 0.8852
vt 0.9583 0.8852
vt 0.8142 0.5544
vt 0.9583 0.6936
vt 0.9442 0.6170
vt 0.9583 0.6170
vt 0.2166 0.8852
vt 0.2675 0.9254
vt 0.2166 0.9254
vt 0.2958 0.8852
vt 0.9668 0.0403
vt 0.9159 0.0000
vt 0.9668 0.0000
vt 0.2675 0.8852
vt 0.2816 0.9254
vt 0.2675 0.8852
vt 0.2816 0.8852
vt 0.9159 0.0403
vt 0.4972 0.5908
vt 0.5219 0.7823
vt 0.4972 0.7823
vt 0.0000 0.6936
vt 0.0247 0.8852
vt 0.0000 0.8852
vt 0.1272 0.6936
vt 0.1025 0.8852
vt 0.1025 0.6936
vt 0.5219 0.5141
vt 0.5975 0.5908
vt 0.5219 0.5908
vt 0.0247 0.9254
vt 0.0000 0.9254
vt 0.1025 0.9254
vt 0.1272 0.8852
vt 0.1272 0.9254
vt 0.3947 0.5141
vt 0.4194 0.5908
vt 0.3947 0.5908
vt 0.4972 0.5141
vt 0.5219 0.5908
vt 0.0000 0.6170
vt 0.0247 0.6936
vt 0.1025 0.6170
vt 0.3947 0.7823
vt 0.4194 0.7823
vt 0.4972 0.8226
vt 0.4194 0.8226
vt 0.8142 0.5544
vt 0.7633 0.5141
vt 0.8142 0.5141
vt 0.9159 0.6170
vt 0.9301 0.6936
vt 0.9159 0.6936
vt 0.9301 0.8852
vt 0.9159 0.8852
vt 0.9442 0.6936
vt 0.9668 0.0767
vt 0.9583 0.8852
vt 0.9725 0.9254
vt 0.9583 0.9254
vt 0.4194 0.5141
vt 0.3053 0.7823
vt 0.3140 0.8226
vt 0.3053 0.8226
vt 0.2675 0.6936
vt 0.2816 0.6936
vt 0.3053 0.8226
vt 0.3148 0.9042
vt 0.3053 0.9042
vt 0.3140 0.7823
vt 0.3947 0.8226
vt 0.3053 0.5141
vt 0.3140 0.5908
vt 0.3053 0.5908
vt 0.3140 0.5141
vt 0.9301 0.6936
vt 0.9442 0.8852
vt 0.9301 0.8852
vt 0.5219 0.8226
vt 0.9809 0.3830
vt 0.9905 0.5746
vt 0.9809 0.5746
vt 0.5219 0.7823
vt 0.5975 0.8226
vt 0.5219 0.8226
vt 0.8761 0.0000
vt 0.6865 0.5141
vt 0.6865 0.0000
vt 0.9905 0.1915
vt 0.9809 0.0000
vt 0.9905 0.0000
vt 0.2654 0.6170
vt 0.0759 0.0000
vt 0.2654 0.0000
vt 0.0247 0.6170
vt 0.5975 0.7823
vt 0.3625 0.8226
vt 0.3720 0.9012
vt 0.3625 0.9012
vt 0.0759 0.6170
vt 0.0000 0.0000
vt 0.9809 0.1915
vt 0.9905 0.3830
vt 0.9809 0.3830
vt 0.9583 0.6170
vt 0.9725 0.6936
vt 0.9583 0.6936
vt 0.5707 0.5141
vt 0.6106 0.0000
vt 0.6106 0.5141
vt 0.3053 0.6170
vt 0.3053 0.0000
vt 0.1272 0.6170
vt 0.6017 0.7057
vt 0.6795 0.8972
vt 0.6017 0.8972
vt 0.6825 0.5141
vt 0.7633 0.7057
vt 0.6825 0.7057
vt 0.6795 0.7057
vt 0.7574 0.8972
vt 0.6795 0.8972
vt 0.6017 0.5141
vt 0.6825 0.7057
vt 0.6017 0.7057
vt 0.9820 1.0000
vt 0.9725 0.8085
vt 0.9820 0.8085
vt 0.3339 0.9042
vt 0.3244 0.8226
vt 0.3339 0.8226
vt 0.3530 0.9012
vt 0.3434 0.8226
vt 0.3530 0.8226
vt 0.2675 0.6170
vt 0.2816 0.6170
vt 0.9820 0.6170
vt 0.9915 0.8085
vt 0.9820 0.8085
vt 0.9442 0.9254
vt 0.9301 0.9254
vt 0.3530 0.8226
vt 0.3625 0.9012
vt 0.3530 0.9012
vt 0.3816 0.9012
vt 0.3720 0.8226
vt 0.3816 0.8226
vt 0.9820 0.8085
vt 0.9725 0.6170
vt 0.9820 0.6170
vt 0.9820 0.8085
vt 0.9915 1.0000
vt 0.9820 1.0000
vt 0.3244 0.9042
vt 0.3148 0.8226
vt 0.3244 0.8226
vt 0.3339 0.8226
vt 0.3434 0.9042
vt 0.3339 0.9042
vt 0.9905 0.0000
vt 1.0000 0.1915
vt 0.9905 0.1915
vt 0.8142 0.7459
vt 0.7633 0.5544
vt 0.9725 0.8852
vt 0.9301 0.9254
vt 0.9159 0.9254
vt 0.9159 0.7459
vt 0.8650 0.5544
vt 0.9159 0.5544
vt 0.9301 0.6170
vt 0.9442 0.6936
vt 0.9159 0.0000
vt 0.8761 0.5141
vt 0.3053 0.5141
vt 0.3812 0.0000
vt 0.3812 0.5141
vt 0.6106 0.5141
vt 0.6106 0.0000
vt 0.5707 0.0000
vt 0.8142 0.8226
vt 0.7633 0.7459
vt 0.8650 0.5141
vt 0.9159 0.5141
vt 0.9159 0.8226
vt 0.8650 0.7459
vt 0.9668 0.6170
vt 0.9159 0.6170
vt 0.2675 0.6170
vt 0.2958 0.6170
vt 0.8142 0.8226
vt 0.2166 0.6170
vt 0.9668 0.6170
vt 0.9668 0.3085
vt 0.9668 0.3085
vt 0.9442 0.9254
vt 0.2675 0.9254
vt 0.5975 0.5141
vt 0.5219 0.5141
vt 0.9301 0.6170
vt 0.3148 0.8226
vt 0.9905 0.3830
vt 0.9809 0.1915
vt 0.3720 0.8226
vt 0.0000 0.6170
vt 0.9905 0.1915
vt 0.9725 0.6170
vt 0.6795 0.7057
vt 0.7633 0.5141
vt 0.7574 0.7057
vt 0.6825 0.5141
vt 0.9725 1.0000
vt 0.3244 0.9042
vt 0.3434 0.9012
vt 0.9915 0.6170
vt 0.3625 0.8226
vt 0.3720 0.9012
vt 0.9725 0.8085
vt 0.9915 0.8085
vt 0.3148 0.9042
vt 0.3434 0.8226
vt 1.0000 0.0000
vt 0.9442 0.6170
vt 0.9159 0.5141
vt 0.3053 0.0000
vt 0.7633 0.8226
vt 0.8650 0.8226
vn -1.0000 0.0000 0.0000
vn 0.0000 0.0000 -1.0000
vn 0.0000 -0.0000 1.0000
vn 1.0000 0.0000 0.0000
vn 0.0000 1.0000 0.0000
vn 0.0000 -1.0000 0.0000
s off
f 262/542/25 277/543/25 280/544/25
f 268/545/26 278/546/26 287/547/26
f 264/548/27 282/549/27 279/550/27
f 297/551/27 270/552/27 263/553/27
f 260/554/28 279/555/28 278/556/28
f 350/557/26 283/558/26 354/559/26
f 358/560/26 273/561/26 355/562/26
f 267/563/28 284/564/28 285/565/28
f 277/566/26 303/567/26 296/568/26
f 258/569/26 285/570/26 277/566/26
f 303/571/28 274/572/28 266/573/28
f 265/574/25 301/575/25 304/576/25
f 285/565/28 302/577/28 303/571/28
f 287/578/25 276/579/25 268/580/25
f 295/581/28 263/582/28 259/583/28
f 354/559/26 301/584/26 358/560/26
f 261/585/27 299/586/27 298/587/27
f 278/556/28 297/588/28 295/581/28
f 280/589/27 271/590/27 262/591/27
f 304/592/26 259/593/26 265/594/26
f 279/550/27 300/595/27 297/551/27
f 298/596/25 257/597/25 261/598/25
f 287/547/26 295/599/26 304/592/26
f 331/600/28 289/601/28 338/602/28
f 280/544/25 296/603/25 298/596/25
f 316/604/26 337/605/26 318/606/26
f 336/607/26 347/608/26 338/609/26
f 353/610/26 348/611/26 346/612/26
f 308/613/26 291/614/26 292/615/26
f 338/609/26 342/616/26 331/617/26
f 347/608/26 341/618/26 342/616/26
f 357/619/26 355/562/26 356/620/26
f 322/621/26 315/622/26 326/623/26
f 310/624/26 335/625/26 316/604/26
f 330/626/26 345/627/26 336/607/26
f 340/628/26 353/610/26 346/612/26
f 315/622/26 328/629/26 326/623/26
f 317/630/26 311/631/26 312/632/26
f 286/633/25 382/634/25 344/635/25
f 375/636/26 323/637/26 381/638/26
f 381/638/26 294/639/26 384/640/26
f 298/587/27 281/641/27 280/589/27
f 304/576/25 283/642/25 287/578/25
f 337/643/25 305/644/25 332/645/25
f 309/646/26 316/604/26 315/622/26
f 302/647/26 320/648/26 274/649/26
f 338/602/28 291/650/28 336/651/28
f 327/652/29 366/653/29 328/654/29
f 327/655/26 319/656/26 320/648/26
f 275/657/26 325/658/26 284/659/26
f 321/660/26 326/623/26 325/658/26
f 324/661/26 383/662/26 293/663/26
f 318/606/26 332/664/26 311/631/26
f 284/659/26 327/655/26 302/647/26
f 325/665/28 365/666/28 327/667/28
f 290/668/26 306/669/26 305/670/26
f 299/671/25 379/672/25 281/673/25
f 328/629/26 312/632/26 319/656/26
f 348/674/25 368/675/25 346/676/25
f 288/677/27 313/678/27 286/679/27
f 339/680/26 346/612/26 345/627/26
f 348/611/26 356/620/26 341/618/26
f 289/681/26 292/615/26 291/614/26
f 347/682/29 370/683/29 348/684/29
f 314/685/27 343/686/27 313/678/27
f 358/687/25 372/688/25 354/689/25
f 329/690/25 292/691/25 335/692/25
f 300/693/28 376/694/28 270/695/28
f 334/696/27 286/679/27 344/697/27
f 349/698/26 354/559/26 353/610/26
f 359/699/26 362/700/26 361/701/26
f 363/702/26 366/703/26 365/704/26
f 367/705/26 370/706/26 369/707/26
f 371/708/26 374/709/26 373/710/26
f 328/711/25 364/712/25 326/713/25
f 357/714/29 374/715/29 358/716/29
f 316/717/30 359/718/30 315/719/30
f 336/651/28 307/720/28 330/721/28
f 315/722/28 361/723/28 317/724/28
f 293/663/26 378/725/26 382/726/26
f 317/727/29 362/728/29 318/729/29
f 346/730/30 367/731/30 345/732/30
f 318/733/25 360/734/25 316/735/25
f 353/736/28 373/737/28 357/738/28
f 326/739/30 363/740/30 325/741/30
f 354/742/30 371/743/30 353/744/30
f 345/745/28 369/746/28 347/747/28
f 313/748/25 293/749/25 286/633/25
f 335/692/25 290/750/25 337/643/25
f 384/640/26 352/751/26 376/752/26
f 323/753/28 288/754/28 294/755/28
f 380/756/26 379/757/26 324/661/26
f 272/758/25 383/759/25 299/671/25
f 269/760/28 381/761/28 282/762/28
f 281/673/25 377/763/25 271/764/25
f 282/762/28 384/765/28 300/693/28
f 343/766/25 324/767/25 313/748/25
f 294/755/28 334/768/28 352/769/28
f 351/770/28 314/771/28 323/753/28
f 296/568/26 266/772/26 257/773/26
f 262/542/25 258/569/25 277/543/25
f 268/545/26 260/774/26 278/546/26
f 264/548/27 269/775/27 282/549/27
f 297/551/27 300/595/27 270/552/27
f 260/554/28 264/776/28 279/555/28
f 350/557/26 276/777/26 283/558/26
f 358/560/26 301/584/26 273/561/26
f 267/563/28 275/778/28 284/564/28
f 277/566/26 285/570/26 303/567/26
f 258/569/26 267/779/26 285/570/26
f 303/571/28 302/577/28 274/572/28
f 265/574/25 273/780/25 301/575/25
f 285/565/28 284/564/28 302/577/28
f 287/578/25 283/642/25 276/579/25
f 295/581/28 297/588/28 263/582/28
f 354/559/26 283/558/26 301/584/26
f 261/585/27 272/781/27 299/586/27
f 278/556/28 279/555/28 297/588/28
f 280/589/27 281/641/27 271/590/27
f 304/592/26 295/599/26 259/593/26
f 279/550/27 282/549/27 300/595/27
f 298/596/25 296/603/25 257/597/25
f 287/547/26 278/546/26 295/599/26
f 331/600/28 306/782/28 289/601/28
f 280/544/25 277/543/25 296/603/25
f 316/604/26 335/625/26 337/605/26
f 336/607/26 345/627/26 347/608/26
f 353/610/26 357/619/26 348/611/26
f 308/613/26 307/783/26 291/614/26
f 338/609/26 347/608/26 342/616/26
f 347/608/26 348/611/26 341/618/26
f 357/619/26 358/560/26 355/562/26
f 322/621/26 309/646/26 315/622/26
f 310/624/26 329/784/26 335/625/26
f 330/626/26 339/680/26 345/627/26
f 340/628/26 349/698/26 353/610/26
f 315/622/26 317/630/26 328/629/26
f 317/630/26 318/606/26 311/631/26
f 286/633/25 293/749/25 382/634/25
f 375/636/26 351/785/26 323/637/26
f 381/638/26 323/637/26 294/639/26
f 298/587/27 299/586/27 281/641/27
f 304/576/25 301/575/25 283/642/25
f 337/643/25 290/750/25 305/644/25
f 309/646/26 310/624/26 316/604/26
f 302/647/26 327/655/26 320/648/26
f 338/602/28 289/601/28 291/650/28
f 327/652/29 365/786/29 366/653/29
f 327/655/26 328/629/26 319/656/26
f 275/657/26 321/660/26 325/658/26
f 321/660/26 322/621/26 326/623/26
f 324/661/26 379/757/26 383/662/26
f 318/606/26 337/605/26 332/664/26
f 284/659/26 325/658/26 327/655/26
f 325/665/28 363/787/28 365/666/28
f 290/668/26 289/681/26 306/669/26
f 299/671/25 383/759/25 379/672/25
f 328/629/26 317/630/26 312/632/26
f 348/674/25 370/788/25 368/675/25
f 288/677/27 314/685/27 313/678/27
f 339/680/26 340/628/26 346/612/26
f 348/611/26 357/619/26 356/620/26
f 289/681/26 290/668/26 292/615/26
f 347/682/29 369/789/29 370/683/29
f 314/685/27 333/790/27 343/686/27
f 358/687/25 374/791/25 372/688/25
f 329/690/25 308/792/25 292/691/25
f 300/693/28 384/765/28 376/694/28
f 334/696/27 288/677/27 286/679/27
f 349/698/26 350/557/26 354/559/26
f 359/699/26 360/793/26 362/700/26
f 363/702/26 364/794/26 366/703/26
f 367/705/26 368/795/26 370/706/26
f 371/708/26 372/796/26 374/709/26
f 328/711/25 366/797/25 364/712/25
f 357/714/29 373/798/29 374/715/29
f 316/717/30 360/799/30 359/718/30
f 336/651/28 291/650/28 307/720/28
f 315/722/28 359/800/28 361/723/28
f 293/663/26 383/662/26 378/725/26
f 317/727/29 361/801/29 362/728/29
f 346/730/30 368/802/30 367/731/30
f 318/733/25 362/803/25 360/734/25
f 353/736/28 371/804/28 373/737/28
f 326/739/30 364/805/30 363/740/30
f 354/742/30 372/806/30 371/743/30
f 345/745/28 367/807/28 369/746/28
f 313/748/25 324/767/25 293/749/25
f 335/692/25 292/691/25 290/750/25
f 384/640/26 294/639/26 352/751/26
f 323/753/28 314/771/28 288/754/28
f 380/756/26 377/808/26 379/757/26
f 272/758/25 378/809/25 383/759/25
f 269/760/28 375/810/28 381/761/28
f 281/673/25 379/672/25 377/763/25
f 282/762/28 381/761/28 384/765/28
f 343/766/25 380/811/25 324/767/25
f 294/755/28 288/754/28 334/768/28
f 351/770/28 333/812/28 314/771/28
f 296/568/26 303/567/26 266/772/26
o Cube.006_Cube.010
v -5.250000 14.500000 5.250000
v -4.750000 15.500000 4.750000
v -5.250000 14.500000 -5.250000
v -4.750000 15.500000 -4.750000
v 5.250000 14.500000 5.250000
v 4.750000 15.500000 4.750000
v 5.250000 14.500000 -5.250000
v 4.750000 15.500000 -4.750000
v -5.250000 15.500000 5.250000
v -5.250000 15.500000 -5.250000
v 5.250000 15.500000 -5.250000
v 5.250000 15.500000 5.250000
v -4.750000 15.000000 4.750000
v -4.750000 15.000000 -4.750000
v 4.750000 15.000000 -4.750000
v 4.750000 15.000000 4.750000
vt 0.6750 0.9524
vt 0.7250 0.4524
vt 0.7250 0.9524
vt 0.5750 0.9524
vt 0.6250 0.4524
vt 0.6250 0.9524
vt 0.5250 0.9524
vt 0.5750 0.4524
vt 0.5750 0.9524
vt 0.6750 0.4524
vt 0.6250 0.9524
vt 0.6250 0.4524
vt 0.5250 0.5000
vt 0.0000 1.0000
vt 0.0000 0.5000
vt 0.8000 0.9048
vt 0.7750 0.4524
vt 0.8000 0.4524
vt 0.0250 0.4762
vt 0.0000 0.0000
vt 0.0250 0.0238
vt 0.5000 0.4762
vt 0.0000 0.5000
vt 0.5000 0.0238
vt 0.5250 0.5000
vt 0.5250 0.0000
vt 0.5250 0.4524
vt 1.0000 0.0000
vt 1.0000 0.4524
vt 0.8250 0.9048
vt 0.8000 0.9048
vt 0.7250 0.4524
vt 0.7500 0.9048
vt 0.7250 0.9048
vt 0.7500 0.4524
vt 0.7750 0.9048
vt 0.7500 0.9048
vt 0.6750 0.4524
vt 0.5750 0.4524
vt 0.5250 0.4524
vt 0.5250 1.0000
vt 0.7750 0.9048
vt 0.5250 0.0000
vt 0.8250 0.4524
vt 0.7500 0.4524
vt 0.7750 0.4524
vn -1.0000 0.0000 0.0000
vn 0.0000 0.0000 -1.0000
vn 1.0000 0.0000 0.0000
vn 0.0000 0.0000 1.0000
vn 0.0000 -1.0000 0.0000
vn 0.0000 1.0000 0.0000
s off
f 393/813/31 387/814/31 385/815/31
f 394/816/32 391/817/32 387/818/32
f 395/819/33 389/820/33 391/821/33
f 396/822/34 385/823/34 389/824/34
f 391/825/35 385/826/35 387/827/35
f 388/828/34 399/829/34 392/830/34
f 388/831/36 393/832/36 386/833/36
f 392/834/36 394/835/36 388/831/36
f 390/836/36 395/837/36 392/834/36
f 386/833/36 396/838/36 390/836/36
f 398/839/36 400/840/36 399/841/36
f 392/830/31 400/842/31 390/843/31
f 386/844/33 398/845/33 388/846/33
f 390/847/32 397/848/32 386/849/32
f 393/813/31 394/850/31 387/814/31
f 394/816/32 395/851/32 391/817/32
f 395/819/33 396/852/33 389/820/33
f 396/822/34 393/813/34 385/823/34
f 391/825/35 389/853/35 385/826/35
f 388/828/34 398/854/34 399/829/34
f 388/831/36 394/835/36 393/832/36
f 392/834/36 395/837/36 394/835/36
f 390/836/36 396/838/36 395/837/36
f 386/833/36 393/832/36 396/838/36
f 398/839/36 397/855/36 400/840/36
f 392/830/31 399/856/31 400/842/31
f 386/844/33 397/857/33 398/845/33
f 390/847/32 400/858/32 397/848/32
